"V1","V2","V3","V4","V5","V6","V7","V8","V9","V10","V11","V12","V13","V14","V15","V16","V17","V18","V19","V20","V21"
"A12",48,"A33","A410",7582,"A62","A71",2,"A93","A101",4,"A124",31,"A143","A153",1,"A174",1,"A192","A201","Good"
"A14",48,"A34","A41",2751,"A65","A75",4,"A93","A101",3,"A123",38,"A143","A152",2,"A173",2,"A192","A201","Good"
"A14",24,"A32","A43",3235,"A63","A75",3,"A91","A101",2,"A123",26,"A143","A152",1,"A174",1,"A192","A201","Good"
"A14",24,"A32","A41",7814,"A61","A74",3,"A93","A101",3,"A123",38,"A143","A152",1,"A174",1,"A192","A201","Good"
"A13",9,"A32","A43",745,"A61","A73",3,"A92","A101",2,"A121",28,"A143","A152",1,"A172",1,"A191","A201","Bad"
"A14",11,"A34","A40",1393,"A61","A72",4,"A92","A101",4,"A123",35,"A143","A152",2,"A174",1,"A191","A201","Good"
"A12",18,"A32","A43",1113,"A61","A73",4,"A92","A103",4,"A121",26,"A143","A152",1,"A172",2,"A191","A201","Good"
"A12",24,"A34","A49",2825,"A65","A74",4,"A93","A101",3,"A124",34,"A143","A152",2,"A173",2,"A192","A201","Good"
"A14",24,"A32","A43",1552,"A61","A74",3,"A93","A101",1,"A123",32,"A141","A152",1,"A173",2,"A191","A201","Good"
"A14",12,"A30","A42",2759,"A61","A75",2,"A93","A101",4,"A122",34,"A143","A152",2,"A173",1,"A191","A201","Good"
"A14",12,"A32","A40",2859,"A65","A71",4,"A93","A101",4,"A124",38,"A143","A152",1,"A174",1,"A192","A201","Good"
"A13",12,"A32","A42",1424,"A65","A75",3,"A92","A101",4,"A121",55,"A143","A152",1,"A174",1,"A192","A201","Good"
"A13",30,"A34","A43",3017,"A61","A75",4,"A93","A101",4,"A122",47,"A143","A152",1,"A173",1,"A191","A201","Good"
"A12",24,"A33","A43",1553,"A62","A74",3,"A92","A101",2,"A122",23,"A143","A151",2,"A173",1,"A192","A201","Good"
"A12",36,"A32","A43",2323,"A61","A74",4,"A93","A101",4,"A123",24,"A143","A151",1,"A173",1,"A191","A201","Good"
"A11",18,"A32","A43",1936,"A65","A74",2,"A94","A101",4,"A123",23,"A143","A151",2,"A172",1,"A191","A201","Good"
"A11",48,"A30","A41",4605,"A61","A75",3,"A93","A101",4,"A124",24,"A143","A153",2,"A173",2,"A191","A201","Bad"
"A12",12,"A32","A43",1158,"A63","A73",3,"A91","A101",1,"A123",26,"A143","A152",1,"A173",1,"A192","A201","Good"
"A11",24,"A32","A41",2910,"A61","A74",2,"A93","A101",1,"A124",34,"A143","A153",1,"A174",1,"A192","A201","Good"
"A14",12,"A32","A42",1736,"A61","A74",3,"A92","A101",4,"A121",31,"A143","A152",1,"A172",1,"A191","A201","Good"
"A13",6,"A34","A40",1343,"A61","A75",1,"A93","A101",4,"A121",46,"A143","A152",2,"A173",2,"A191","A202","Good"
"A11",24,"A32","A43",2384,"A61","A75",4,"A93","A101",4,"A121",64,"A141","A151",1,"A172",1,"A191","A201","Good"
"A13",6,"A32","A42",2116,"A61","A73",2,"A93","A101",2,"A121",41,"A143","A152",1,"A173",1,"A192","A201","Good"
"A14",24,"A32","A40",7393,"A61","A73",1,"A93","A101",4,"A122",43,"A143","A152",1,"A172",2,"A191","A201","Good"
"A11",42,"A33","A43",4370,"A61","A74",3,"A93","A101",2,"A122",26,"A141","A152",2,"A173",2,"A192","A201","Bad"
"A11",15,"A34","A42",975,"A61","A73",2,"A91","A101",3,"A122",25,"A143","A152",2,"A173",1,"A191","A201","Good"
"A11",6,"A32","A40",662,"A61","A72",3,"A93","A101",4,"A121",41,"A143","A152",1,"A172",2,"A192","A201","Good"
"A12",36,"A34","A40",2820,"A61","A72",4,"A91","A101",4,"A123",27,"A143","A152",2,"A173",1,"A191","A201","Bad"
"A14",12,"A32","A42",1574,"A61","A73",4,"A93","A101",2,"A121",50,"A143","A152",1,"A173",1,"A191","A201","Good"
"A11",27,"A32","A43",3416,"A61","A73",3,"A93","A101",2,"A123",27,"A143","A152",1,"A174",1,"A191","A201","Good"
"A11",12,"A32","A43",1498,"A61","A73",4,"A92","A101",1,"A123",23,"A141","A152",1,"A173",1,"A191","A201","Good"
"A11",12,"A32","A42",3590,"A61","A73",2,"A93","A102",2,"A122",29,"A143","A152",1,"A172",2,"A191","A201","Good"
"A11",12,"A34","A40",4843,"A61","A75",3,"A93","A102",4,"A122",43,"A143","A151",2,"A173",1,"A192","A201","Bad"
"A14",12,"A34","A43",1655,"A61","A75",2,"A93","A101",4,"A121",63,"A143","A152",2,"A172",1,"A192","A201","Good"
"A12",12,"A34","A41",1804,"A62","A72",3,"A93","A101",4,"A122",44,"A143","A152",1,"A173",1,"A191","A201","Good"
"A11",15,"A32","A40",1721,"A61","A72",2,"A93","A101",3,"A121",36,"A143","A152",1,"A173",1,"A191","A201","Good"
"A11",24,"A32","A43",1987,"A61","A73",2,"A93","A101",4,"A121",21,"A143","A151",1,"A172",2,"A191","A201","Bad"
"A11",24,"A32","A49",6568,"A61","A73",2,"A94","A101",2,"A123",21,"A142","A152",1,"A172",1,"A191","A201","Good"
"A14",30,"A32","A41",4811,"A65","A74",2,"A92","A101",4,"A122",24,"A142","A151",1,"A172",1,"A191","A201","Good"
"A14",12,"A32","A43",707,"A61","A73",4,"A93","A101",2,"A121",30,"A141","A152",2,"A173",1,"A191","A201","Good"
"A12",12,"A32","A43",766,"A63","A73",4,"A93","A101",3,"A121",66,"A143","A152",1,"A172",1,"A191","A201","Bad"
"A11",36,"A34","A42",2348,"A61","A73",3,"A94","A101",2,"A122",46,"A143","A152",2,"A173",1,"A192","A201","Good"
"A11",12,"A32","A42",2578,"A61","A71",3,"A92","A101",4,"A124",55,"A143","A153",1,"A174",1,"A191","A201","Good"
"A14",18,"A34","A41",3229,"A65","A71",2,"A93","A101",4,"A124",38,"A143","A152",1,"A174",1,"A192","A201","Good"
"A12",48,"A31","A49",3566,"A62","A74",4,"A93","A101",2,"A123",30,"A143","A152",1,"A173",1,"A191","A201","Good"
"A14",15,"A32","A42",2708,"A61","A72",2,"A93","A101",3,"A122",27,"A141","A152",2,"A172",1,"A191","A201","Good"
"A14",6,"A34","A43",1740,"A61","A75",2,"A94","A101",2,"A121",30,"A143","A151",2,"A173",1,"A191","A201","Good"
"A12",48,"A34","A42",5096,"A61","A73",2,"A92","A101",3,"A123",30,"A143","A152",1,"A174",1,"A192","A201","Bad"
"A14",24,"A33","A42",4151,"A62","A73",2,"A93","A101",3,"A122",35,"A143","A152",2,"A173",1,"A191","A201","Good"
"A12",36,"A33","A40",7432,"A61","A73",2,"A92","A101",2,"A122",54,"A143","A151",1,"A173",1,"A191","A201","Good"
"A11",30,"A34","A41",6187,"A62","A74",1,"A94","A101",4,"A123",24,"A143","A151",2,"A173",1,"A191","A201","Good"
"A12",18,"A32","A40",1042,"A65","A73",4,"A92","A101",2,"A122",33,"A143","A152",1,"A173",1,"A191","A201","Bad"
"A13",15,"A34","A43",1271,"A65","A73",3,"A93","A101",4,"A124",39,"A143","A153",2,"A173",1,"A192","A201","Bad"
"A14",48,"A34","A43",3578,"A65","A75",4,"A93","A101",1,"A121",47,"A143","A152",1,"A173",1,"A192","A201","Good"
"A12",36,"A32","A46",2273,"A61","A74",3,"A93","A101",1,"A123",32,"A143","A152",2,"A173",2,"A191","A201","Good"
"A12",9,"A34","A46",1501,"A61","A75",2,"A92","A101",3,"A123",34,"A143","A152",2,"A174",1,"A192","A201","Bad"
"A11",21,"A32","A43",1835,"A61","A73",3,"A92","A101",2,"A121",25,"A143","A152",2,"A173",1,"A192","A201","Bad"
"A14",18,"A34","A43",629,"A63","A75",4,"A93","A101",3,"A122",32,"A141","A152",2,"A174",1,"A192","A201","Good"
"A14",24,"A31","A49",1559,"A61","A74",4,"A93","A101",4,"A123",50,"A141","A152",1,"A173",1,"A192","A201","Good"
"A13",30,"A34","A43",3656,"A65","A75",4,"A93","A101",4,"A122",49,"A142","A152",2,"A172",1,"A191","A201","Good"
"A14",15,"A32","A43",1979,"A65","A75",4,"A93","A101",2,"A123",35,"A143","A152",1,"A173",1,"A191","A201","Good"
"A11",12,"A30","A45",1108,"A61","A74",4,"A93","A101",3,"A121",28,"A143","A152",2,"A173",1,"A191","A201","Bad"
"A12",18,"A32","A46",1239,"A65","A73",4,"A93","A101",4,"A124",61,"A143","A153",1,"A173",1,"A191","A201","Good"
"A11",12,"A31","A43",2149,"A61","A73",4,"A91","A101",1,"A124",29,"A143","A153",1,"A173",1,"A191","A201","Bad"
"A11",12,"A32","A43",2214,"A61","A73",4,"A93","A101",3,"A122",24,"A143","A152",1,"A172",1,"A191","A201","Good"
"A14",18,"A32","A42",1533,"A61","A72",4,"A94","A102",1,"A122",43,"A143","A152",1,"A172",2,"A191","A201","Bad"
"A13",6,"A34","A40",1299,"A61","A73",1,"A93","A101",1,"A121",74,"A143","A152",3,"A171",2,"A191","A202","Good"
"A12",24,"A34","A43",1743,"A61","A75",4,"A93","A101",2,"A122",48,"A143","A152",2,"A172",1,"A191","A201","Good"
"A11",24,"A31","A40",2325,"A62","A74",2,"A93","A101",3,"A123",32,"A141","A152",1,"A173",1,"A191","A201","Good"
"A13",12,"A34","A40",939,"A63","A74",4,"A94","A101",2,"A121",28,"A143","A152",3,"A173",1,"A192","A201","Bad"
"A11",48,"A34","A41",6331,"A61","A75",4,"A93","A101",4,"A124",46,"A143","A153",2,"A173",1,"A192","A201","Bad"
"A14",12,"A32","A40",2133,"A65","A75",4,"A92","A101",4,"A124",52,"A143","A153",1,"A174",1,"A192","A201","Good"
"A12",18,"A34","A42",6361,"A61","A75",2,"A93","A101",1,"A124",41,"A143","A152",1,"A173",1,"A192","A201","Good"
"A11",6,"A34","A43",1169,"A65","A75",4,"A93","A101",4,"A121",67,"A143","A152",2,"A173",1,"A192","A201","Good"
"A14",12,"A32","A40",1884,"A61","A75",4,"A93","A101",4,"A123",39,"A143","A152",1,"A174",1,"A192","A201","Good"
"A11",12,"A32","A48",902,"A61","A74",4,"A94","A101",4,"A122",21,"A143","A151",1,"A173",1,"A191","A201","Bad"
"A14",9,"A32","A44",1236,"A61","A72",1,"A92","A101",4,"A121",23,"A143","A151",1,"A173",1,"A192","A201","Good"
"A13",42,"A30","A49",6289,"A61","A72",2,"A91","A101",1,"A122",33,"A143","A152",2,"A173",1,"A191","A201","Good"
"A14",18,"A34","A40",1028,"A61","A73",4,"A92","A101",3,"A121",36,"A143","A152",2,"A173",1,"A191","A201","Good"
"A14",6,"A33","A43",932,"A61","A73",3,"A92","A101",2,"A121",24,"A143","A152",1,"A173",1,"A191","A201","Good"
"A14",15,"A32","A41",4657,"A61","A73",3,"A93","A101",2,"A123",30,"A143","A152",1,"A173",1,"A192","A201","Good"
"A11",24,"A31","A41",3632,"A61","A73",1,"A92","A103",4,"A123",22,"A141","A151",1,"A173",1,"A191","A202","Good"
"A13",12,"A32","A40",1330,"A61","A72",4,"A93","A101",1,"A121",26,"A143","A152",1,"A173",1,"A191","A201","Good"
"A11",12,"A32","A40",1228,"A61","A73",4,"A92","A101",2,"A121",24,"A143","A152",1,"A172",1,"A191","A201","Bad"
"A12",12,"A32","A40",1318,"A64","A75",4,"A93","A101",4,"A121",54,"A143","A152",1,"A173",1,"A192","A201","Good"
"A11",28,"A32","A40",4006,"A61","A73",3,"A93","A101",2,"A123",45,"A143","A152",1,"A172",1,"A191","A201","Bad"
"A11",16,"A34","A40",2625,"A61","A75",2,"A93","A103",4,"A122",43,"A141","A151",1,"A173",1,"A192","A201","Bad"
"A12",18,"A34","A49",3590,"A61","A71",3,"A94","A101",3,"A123",40,"A143","A152",3,"A171",2,"A192","A201","Good"
"A12",42,"A31","A41",9283,"A61","A71",1,"A93","A101",2,"A124",55,"A141","A153",1,"A174",1,"A192","A201","Good"
"A14",6,"A34","A43",1898,"A65","A73",1,"A93","A101",2,"A121",34,"A143","A152",2,"A172",2,"A191","A201","Good"
"A11",33,"A34","A42",4281,"A63","A73",1,"A92","A101",4,"A123",23,"A143","A152",2,"A173",1,"A191","A201","Bad"
"A12",24,"A32","A40",2718,"A61","A73",3,"A92","A101",4,"A122",20,"A143","A151",1,"A172",1,"A192","A201","Bad"
"A14",24,"A32","A42",5511,"A62","A73",4,"A93","A101",1,"A123",25,"A142","A152",1,"A173",1,"A191","A201","Good"
"A12",6,"A31","A40",931,"A62","A72",1,"A92","A101",1,"A122",32,"A142","A152",1,"A172",1,"A191","A201","Bad"
"A14",12,"A32","A49",1076,"A61","A73",2,"A94","A101",2,"A121",26,"A143","A152",1,"A173",1,"A192","A202","Good"
"A12",24,"A34","A49",1935,"A61","A75",4,"A91","A101",4,"A121",31,"A143","A152",2,"A173",1,"A192","A201","Bad"
"A12",12,"A30","A42",2969,"A61","A72",4,"A92","A101",3,"A122",25,"A143","A151",2,"A173",1,"A191","A201","Bad"
"A11",10,"A32","A43",2315,"A61","A75",3,"A93","A101",4,"A121",52,"A143","A152",1,"A172",1,"A191","A201","Good"
"A12",12,"A32","A41",2028,"A65","A73",4,"A93","A101",2,"A123",30,"A143","A152",1,"A173",1,"A191","A201","Good"
"A11",36,"A32","A42",3620,"A61","A73",1,"A93","A103",2,"A122",37,"A143","A152",1,"A173",2,"A191","A201","Good"
"A13",18,"A32","A42",3049,"A61","A72",1,"A92","A101",1,"A122",45,"A142","A152",1,"A172",1,"A191","A201","Good"
"A12",21,"A34","A42",2745,"A64","A74",3,"A93","A101",2,"A123",32,"A143","A152",2,"A173",1,"A192","A201","Good"
"A11",42,"A34","A45",3394,"A61","A71",4,"A93","A102",4,"A123",65,"A143","A152",2,"A171",1,"A191","A201","Good"
"A14",10,"A32","A48",894,"A65","A74",4,"A92","A101",3,"A122",40,"A143","A152",1,"A173",1,"A192","A201","Good"
"A11",6,"A34","A42",1872,"A61","A71",4,"A93","A101",4,"A124",36,"A143","A153",3,"A174",1,"A192","A201","Good"
"A11",18,"A32","A41",7511,"A65","A75",1,"A93","A101",4,"A122",51,"A143","A153",1,"A173",2,"A192","A201","Bad"
"A14",6,"A34","A43",1554,"A61","A74",1,"A92","A101",2,"A123",24,"A143","A151",2,"A173",1,"A192","A201","Good"
"A13",18,"A32","A42",2864,"A61","A73",2,"A93","A101",1,"A121",34,"A143","A152",1,"A172",2,"A191","A201","Bad"
"A14",18,"A34","A41",3850,"A61","A74",3,"A93","A101",1,"A123",27,"A143","A152",2,"A173",1,"A191","A201","Good"
"A11",36,"A33","A46",6887,"A61","A73",4,"A93","A101",3,"A122",29,"A142","A152",1,"A173",1,"A192","A201","Bad"
"A11",45,"A30","A49",11816,"A61","A75",2,"A93","A101",4,"A123",29,"A143","A151",2,"A173",1,"A191","A201","Bad"
"A14",24,"A32","A43",1533,"A61","A72",4,"A92","A101",3,"A123",38,"A142","A152",1,"A173",1,"A192","A201","Good"
"A14",18,"A32","A41",3378,"A65","A73",2,"A93","A101",1,"A122",31,"A143","A152",1,"A173",1,"A192","A201","Good"
"A11",36,"A32","A42",5179,"A61","A74",4,"A93","A101",2,"A122",29,"A143","A152",1,"A173",1,"A191","A201","Bad"
"A14",12,"A32","A43",1493,"A61","A72",4,"A92","A101",3,"A123",34,"A143","A152",1,"A173",2,"A191","A201","Good"
"A11",12,"A34","A40",2121,"A61","A73",4,"A93","A101",2,"A122",30,"A143","A152",2,"A173",1,"A191","A201","Good"
"A12",6,"A33","A40",1209,"A61","A71",4,"A93","A101",4,"A122",47,"A143","A152",1,"A174",1,"A192","A201","Bad"
"A14",18,"A32","A45",1943,"A61","A72",4,"A92","A101",4,"A121",23,"A143","A152",1,"A173",1,"A191","A201","Bad"
"A11",6,"A34","A40",1361,"A61","A72",2,"A93","A101",4,"A121",40,"A143","A152",1,"A172",2,"A191","A202","Good"
"A14",12,"A34","A43",2331,"A65","A75",1,"A93","A102",4,"A121",49,"A143","A152",1,"A173",1,"A192","A201","Good"
"A11",24,"A32","A42",3234,"A61","A72",4,"A92","A101",4,"A121",23,"A143","A151",1,"A172",1,"A192","A201","Bad"
"A12",6,"A32","A43",753,"A61","A73",2,"A92","A103",3,"A121",64,"A143","A152",1,"A173",1,"A191","A201","Good"
"A14",18,"A32","A40",2662,"A65","A74",4,"A93","A101",3,"A122",32,"A143","A152",1,"A173",1,"A191","A202","Good"
"A12",27,"A32","A49",3915,"A61","A73",4,"A93","A101",2,"A123",36,"A143","A152",1,"A173",2,"A192","A201","Bad"
"A11",18,"A32","A42",2659,"A64","A73",4,"A93","A101",2,"A123",28,"A143","A152",1,"A173",1,"A191","A201","Good"
"A14",18,"A33","A49",2169,"A61","A73",4,"A94","A101",2,"A123",28,"A143","A152",1,"A173",1,"A192","A201","Bad"
"A14",60,"A32","A43",10144,"A62","A74",2,"A92","A101",4,"A121",21,"A143","A152",1,"A173",1,"A192","A201","Good"
"A12",30,"A32","A42",3832,"A61","A72",2,"A94","A101",1,"A122",22,"A143","A152",1,"A173",1,"A191","A201","Good"
"A13",10,"A34","A40",781,"A61","A75",4,"A93","A101",4,"A124",63,"A143","A153",2,"A173",1,"A192","A201","Good"
"A12",7,"A32","A43",2329,"A61","A72",1,"A92","A103",1,"A121",45,"A143","A152",1,"A173",1,"A191","A201","Good"
"A11",48,"A32","A40",7763,"A61","A75",4,"A93","A101",4,"A124",42,"A141","A153",1,"A174",1,"A191","A201","Bad"
"A13",12,"A34","A40",1480,"A63","A71",2,"A93","A101",4,"A124",66,"A141","A153",3,"A171",1,"A191","A201","Good"
"A14",30,"A32","A43",1867,"A65","A75",4,"A93","A101",4,"A123",58,"A143","A152",1,"A173",1,"A192","A201","Good"
"A13",24,"A32","A43",1258,"A63","A73",3,"A92","A101",3,"A123",57,"A143","A152",1,"A172",1,"A191","A201","Good"
"A14",6,"A32","A43",518,"A61","A73",3,"A92","A101",1,"A121",29,"A143","A152",1,"A173",1,"A191","A201","Good"
"A14",30,"A34","A43",6742,"A65","A74",2,"A93","A101",3,"A122",36,"A143","A152",2,"A173",1,"A191","A201","Good"
"A14",24,"A32","A42",929,"A65","A74",4,"A93","A101",2,"A123",31,"A142","A152",1,"A173",1,"A192","A201","Good"
"A14",24,"A33","A40",2538,"A61","A75",4,"A93","A101",4,"A123",47,"A143","A152",2,"A172",2,"A191","A201","Bad"
"A14",18,"A32","A42",3422,"A61","A75",4,"A93","A101",4,"A122",47,"A141","A152",3,"A173",2,"A192","A201","Good"
"A12",36,"A32","A40",14318,"A61","A75",4,"A93","A101",2,"A124",57,"A143","A153",1,"A174",1,"A192","A201","Bad"
"A11",14,"A32","A40",8978,"A61","A75",1,"A91","A101",4,"A122",45,"A143","A152",1,"A174",1,"A192","A202","Bad"
"A12",9,"A32","A42",959,"A61","A73",1,"A92","A101",2,"A123",29,"A143","A152",1,"A173",1,"A191","A202","Bad"
"A14",12,"A32","A43",3059,"A64","A74",2,"A91","A101",4,"A121",61,"A143","A152",1,"A172",1,"A191","A201","Good"
"A11",12,"A31","A48",339,"A61","A75",4,"A94","A101",1,"A123",45,"A141","A152",1,"A172",1,"A191","A201","Good"
"A12",6,"A31","A46",433,"A64","A72",4,"A92","A101",2,"A122",24,"A141","A151",1,"A173",2,"A191","A201","Bad"
"A12",12,"A32","A42",951,"A62","A72",4,"A92","A101",4,"A123",27,"A141","A151",4,"A173",1,"A191","A201","Bad"
"A14",12,"A34","A40",1495,"A61","A75",4,"A93","A101",1,"A121",38,"A143","A152",2,"A172",2,"A191","A201","Good"
"A14",27,"A32","A45",5190,"A65","A75",4,"A93","A101",4,"A122",48,"A143","A152",4,"A173",2,"A192","A201","Good"
"A14",12,"A32","A41",1413,"A64","A74",3,"A93","A101",2,"A122",55,"A143","A152",1,"A173",1,"A191","A202","Good"
"A11",12,"A32","A42",1858,"A61","A72",4,"A92","A101",1,"A123",22,"A143","A151",1,"A173",1,"A191","A201","Good"
"A13",9,"A30","A43",1337,"A61","A72",4,"A93","A101",2,"A123",34,"A143","A152",2,"A174",1,"A192","A201","Bad"
"A12",12,"A34","A40",958,"A61","A74",2,"A93","A101",3,"A121",47,"A143","A152",2,"A172",2,"A191","A201","Good"
"A13",36,"A32","A43",4473,"A61","A75",4,"A93","A101",2,"A123",31,"A143","A152",1,"A173",1,"A191","A201","Good"
"A14",15,"A32","A40",3556,"A65","A73",3,"A93","A101",2,"A124",29,"A143","A152",1,"A173",1,"A191","A201","Good"
"A13",24,"A34","A42",3617,"A65","A75",4,"A93","A102",4,"A124",20,"A143","A151",2,"A173",1,"A191","A201","Good"
"A12",6,"A32","A43",1068,"A61","A75",4,"A93","A101",4,"A123",28,"A143","A152",1,"A173",2,"A191","A201","Good"
"A11",30,"A32","A42",3622,"A64","A75",4,"A92","A101",4,"A122",57,"A143","A151",2,"A173",1,"A192","A201","Good"
"A11",21,"A31","A40",1647,"A65","A73",4,"A93","A101",2,"A122",40,"A143","A152",2,"A172",2,"A191","A201","Bad"
"A12",60,"A31","A410",14782,"A62","A75",3,"A92","A101",4,"A124",60,"A141","A153",2,"A174",1,"A192","A201","Bad"
"A14",24,"A34","A42",3777,"A64","A73",4,"A93","A101",4,"A121",50,"A143","A152",1,"A173",1,"A192","A201","Good"
"A14",20,"A34","A40",3485,"A65","A72",2,"A91","A101",4,"A121",44,"A143","A152",2,"A173",1,"A192","A201","Good"
"A14",12,"A32","A41",4675,"A65","A72",1,"A92","A101",4,"A123",20,"A143","A151",1,"A173",1,"A191","A201","Good"
"A14",12,"A34","A40",1255,"A61","A75",4,"A93","A101",4,"A121",61,"A143","A152",2,"A172",1,"A191","A201","Good"
"A12",12,"A32","A40",685,"A61","A74",2,"A94","A101",3,"A123",25,"A141","A152",1,"A172",1,"A191","A201","Bad"
"A14",10,"A32","A40",1287,"A65","A75",4,"A93","A102",2,"A122",45,"A143","A152",1,"A172",1,"A191","A202","Good"
"A14",9,"A34","A46",1244,"A65","A75",4,"A92","A101",4,"A122",41,"A143","A151",2,"A172",1,"A191","A201","Good"
"A11",6,"A34","A40",3676,"A61","A73",1,"A93","A101",3,"A121",37,"A143","A151",3,"A173",2,"A191","A201","Good"
"A12",18,"A34","A40",884,"A61","A75",4,"A93","A101",4,"A123",36,"A141","A152",1,"A173",2,"A192","A201","Bad"
"A12",18,"A32","A49",4439,"A61","A75",1,"A93","A102",1,"A121",33,"A141","A152",1,"A174",1,"A192","A201","Good"
"A12",12,"A32","A43",625,"A61","A72",4,"A94","A103",1,"A121",26,"A141","A152",1,"A172",1,"A191","A201","Good"
"A11",48,"A30","A42",7119,"A61","A73",3,"A93","A101",4,"A124",53,"A143","A153",2,"A173",2,"A191","A201","Bad"
"A13",36,"A32","A43",5848,"A61","A73",4,"A93","A101",1,"A123",24,"A143","A152",1,"A173",1,"A191","A201","Good"
"A14",30,"A34","A41",7596,"A65","A75",1,"A93","A101",4,"A123",63,"A143","A152",2,"A173",1,"A191","A201","Good"
"A12",24,"A32","A43",5084,"A65","A75",2,"A92","A101",4,"A123",42,"A143","A152",1,"A173",1,"A192","A201","Good"
"A11",48,"A32","A43",6999,"A61","A74",1,"A94","A103",1,"A121",34,"A143","A152",2,"A173",1,"A192","A201","Bad"
"A14",39,"A32","A41",8588,"A62","A75",4,"A93","A101",2,"A123",45,"A143","A152",1,"A174",1,"A192","A201","Good"
"A12",21,"A33","A40",2353,"A61","A73",1,"A91","A101",4,"A122",47,"A143","A152",2,"A173",1,"A191","A201","Good"
"A14",6,"A32","A45",660,"A63","A74",2,"A94","A101",4,"A121",23,"A143","A151",1,"A172",1,"A191","A201","Good"
"A13",24,"A34","A43",3148,"A65","A73",3,"A93","A101",2,"A123",31,"A143","A152",2,"A173",1,"A192","A201","Good"
"A13",24,"A32","A43",5152,"A61","A74",4,"A93","A101",2,"A123",25,"A141","A152",1,"A173",1,"A191","A201","Good"
"A14",9,"A32","A43",2753,"A62","A75",3,"A93","A102",4,"A123",35,"A143","A152",1,"A173",1,"A192","A201","Good"
"A12",60,"A33","A43",7418,"A65","A73",1,"A93","A101",1,"A121",27,"A143","A152",1,"A172",1,"A191","A201","Good"
"A14",24,"A32","A48",937,"A61","A72",4,"A94","A101",3,"A123",27,"A143","A152",2,"A172",1,"A191","A201","Good"
"A11",18,"A30","A49",3104,"A61","A74",3,"A93","A101",1,"A122",31,"A141","A152",1,"A173",1,"A192","A201","Good"
"A14",12,"A34","A40",1163,"A63","A73",4,"A93","A101",4,"A121",44,"A143","A152",1,"A173",1,"A192","A201","Good"
"A11",36,"A32","A40",3249,"A61","A74",2,"A93","A101",4,"A124",39,"A141","A153",1,"A174",2,"A192","A201","Good"
"A12",6,"A34","A48",932,"A65","A74",1,"A92","A101",3,"A122",39,"A143","A152",2,"A172",1,"A191","A201","Good"
"A14",18,"A32","A43",4594,"A61","A72",3,"A93","A101",2,"A123",32,"A143","A152",1,"A173",1,"A192","A201","Good"
"A12",10,"A31","A43",1048,"A61","A73",4,"A93","A101",4,"A121",23,"A142","A152",1,"A172",1,"A191","A201","Good"
"A14",24,"A32","A43",2397,"A63","A75",3,"A93","A101",2,"A123",35,"A141","A152",2,"A173",1,"A192","A201","Bad"
"A14",36,"A32","A42",10974,"A61","A71",4,"A92","A101",2,"A123",26,"A143","A152",2,"A174",1,"A192","A201","Bad"
"A11",12,"A32","A42",1657,"A61","A73",2,"A93","A101",2,"A121",27,"A143","A152",1,"A173",1,"A191","A201","Good"
"A14",18,"A34","A43",1169,"A65","A73",4,"A93","A101",3,"A122",29,"A143","A152",2,"A173",1,"A192","A201","Good"
"A11",24,"A32","A40",3123,"A61","A72",4,"A92","A101",1,"A122",27,"A143","A152",1,"A173",1,"A191","A201","Bad"
"A11",24,"A32","A40",1285,"A65","A74",4,"A92","A101",4,"A124",32,"A143","A151",1,"A173",1,"A191","A201","Bad"
"A11",48,"A31","A49",7685,"A61","A74",2,"A92","A103",4,"A123",37,"A143","A151",1,"A173",1,"A191","A201","Bad"
"A14",24,"A32","A40",1525,"A64","A74",4,"A92","A101",3,"A123",34,"A143","A152",1,"A173",2,"A192","A201","Good"
"A11",60,"A32","A49",7297,"A61","A75",4,"A93","A102",4,"A124",36,"A143","A151",1,"A173",1,"A191","A201","Bad"
"A14",12,"A32","A42",1768,"A61","A73",3,"A93","A101",2,"A121",24,"A143","A151",1,"A172",1,"A191","A201","Good"
"A11",6,"A32","A44",343,"A61","A72",4,"A92","A101",1,"A121",27,"A143","A152",1,"A173",1,"A191","A201","Good"
"A14",24,"A32","A49",4591,"A64","A73",2,"A93","A101",3,"A122",54,"A143","A152",3,"A174",1,"A192","A201","Bad"
"A12",12,"A34","A42",3617,"A61","A75",1,"A93","A101",4,"A123",28,"A143","A151",3,"A173",1,"A192","A201","Good"
"A11",15,"A34","A42",1478,"A61","A75",4,"A93","A101",4,"A123",44,"A143","A152",2,"A173",2,"A192","A201","Good"
"A12",24,"A32","A43",1967,"A61","A75",4,"A92","A101",4,"A123",20,"A143","A152",1,"A173",1,"A192","A201","Good"
"A12",30,"A34","A40",4249,"A61","A71",4,"A94","A101",2,"A123",28,"A143","A152",2,"A174",1,"A191","A201","Bad"
"A13",15,"A32","A46",1905,"A61","A75",4,"A93","A101",4,"A123",40,"A143","A151",1,"A174",1,"A192","A201","Good"
"A11",24,"A33","A43",1024,"A61","A72",4,"A94","A101",4,"A121",48,"A142","A152",1,"A173",1,"A191","A201","Bad"
"A14",9,"A32","A43",1478,"A61","A74",4,"A93","A101",2,"A123",22,"A143","A152",1,"A173",1,"A191","A201","Bad"
"A14",12,"A34","A43",1240,"A65","A75",4,"A92","A101",2,"A121",38,"A143","A152",2,"A173",1,"A192","A201","Good"
"A14",27,"A33","A41",8613,"A64","A73",2,"A93","A101",2,"A123",27,"A143","A152",2,"A173",1,"A191","A201","Good"
"A11",20,"A32","A42",2212,"A65","A74",4,"A93","A101",4,"A123",39,"A143","A152",1,"A173",1,"A192","A201","Good"
"A12",18,"A33","A42",4297,"A61","A75",4,"A91","A101",3,"A124",40,"A143","A152",1,"A174",1,"A192","A201","Bad"
"A11",15,"A30","A40",950,"A61","A75",4,"A93","A101",3,"A123",33,"A143","A151",2,"A173",2,"A191","A201","Bad"
"A12",48,"A30","A40",8358,"A63","A72",1,"A92","A101",1,"A123",30,"A143","A152",2,"A173",1,"A191","A201","Good"
"A13",18,"A32","A43",2100,"A61","A73",4,"A93","A102",2,"A121",37,"A142","A152",1,"A173",1,"A191","A201","Bad"
"A14",12,"A34","A45",996,"A65","A74",4,"A92","A101",4,"A121",23,"A143","A152",2,"A173",1,"A191","A201","Good"
"A14",9,"A32","A43",2697,"A61","A73",1,"A93","A101",2,"A121",32,"A143","A152",1,"A173",2,"A191","A201","Good"
"A14",9,"A32","A42",2301,"A62","A72",2,"A92","A101",4,"A122",22,"A143","A151",1,"A173",1,"A191","A201","Good"
"A12",15,"A32","A45",1308,"A61","A75",4,"A93","A101",4,"A123",38,"A143","A152",2,"A172",1,"A191","A201","Good"
"A14",18,"A32","A43",1505,"A61","A73",4,"A93","A101",2,"A124",32,"A143","A153",1,"A174",1,"A192","A201","Good"
"A14",24,"A33","A49",2375,"A63","A73",4,"A93","A101",2,"A123",44,"A143","A152",2,"A173",2,"A192","A201","Good"
"A14",21,"A32","A41",5248,"A65","A73",1,"A93","A101",3,"A123",26,"A143","A152",1,"A173",1,"A191","A201","Good"
"A11",12,"A32","A40",1372,"A61","A74",2,"A91","A101",3,"A123",36,"A143","A152",1,"A173",1,"A191","A201","Bad"
"A14",24,"A32","A43",1311,"A62","A74",4,"A94","A101",3,"A122",26,"A143","A152",1,"A173",1,"A192","A201","Good"
"A13",21,"A32","A40",2923,"A62","A73",1,"A92","A101",1,"A123",28,"A141","A152",1,"A174",1,"A192","A201","Good"
"A11",8,"A34","A40",731,"A61","A75",4,"A93","A101",4,"A121",47,"A143","A152",2,"A172",1,"A191","A201","Good"
"A12",18,"A32","A42",3001,"A61","A74",2,"A92","A101",4,"A121",40,"A143","A151",1,"A173",1,"A191","A201","Good"
"A14",24,"A34","A45",2058,"A61","A73",4,"A91","A101",2,"A121",33,"A143","A152",2,"A173",1,"A192","A201","Good"
"A11",18,"A32","A42",4153,"A61","A73",2,"A93","A102",3,"A123",42,"A143","A152",1,"A173",1,"A191","A201","Bad"
"A14",15,"A32","A40",5324,"A63","A75",1,"A92","A101",4,"A124",35,"A143","A153",1,"A173",1,"A191","A201","Good"
"A14",39,"A32","A41",2569,"A63","A73",4,"A93","A101",4,"A123",24,"A143","A152",1,"A173",1,"A191","A201","Good"
"A14",42,"A32","A43",7166,"A65","A74",2,"A94","A101",4,"A122",29,"A143","A151",1,"A173",1,"A192","A201","Good"
"A11",12,"A32","A40",2579,"A61","A72",4,"A93","A101",1,"A121",33,"A143","A152",1,"A172",2,"A191","A201","Bad"
"A11",48,"A34","A41",6143,"A61","A75",4,"A92","A101",4,"A124",58,"A142","A153",2,"A172",1,"A191","A201","Bad"
"A12",48,"A33","A46",6224,"A61","A75",4,"A93","A101",4,"A124",50,"A143","A153",1,"A173",1,"A191","A201","Bad"
"A11",10,"A34","A40",1038,"A61","A74",4,"A93","A102",3,"A122",49,"A143","A152",2,"A173",1,"A192","A201","Good"
"A14",10,"A32","A43",1924,"A61","A73",1,"A93","A101",4,"A122",38,"A143","A152",1,"A173",1,"A192","A202","Good"
"A12",24,"A32","A40",1355,"A61","A72",3,"A92","A101",4,"A123",25,"A143","A152",1,"A172",1,"A192","A201","Bad"
"A11",42,"A32","A43",7174,"A65","A74",4,"A92","A101",3,"A123",30,"A143","A152",1,"A174",1,"A192","A201","Bad"
"A13",10,"A32","A40",1240,"A62","A75",1,"A92","A101",4,"A124",48,"A143","A153",1,"A172",2,"A191","A201","Bad"
"A14",36,"A34","A41",5842,"A61","A75",2,"A93","A101",2,"A122",35,"A143","A152",2,"A173",2,"A192","A201","Good"
"A13",9,"A32","A43",1126,"A62","A75",2,"A91","A101",4,"A121",49,"A143","A152",1,"A173",1,"A191","A201","Good"
"A12",48,"A32","A40",8487,"A65","A74",1,"A92","A101",2,"A123",24,"A143","A152",1,"A173",1,"A191","A201","Good"
"A14",12,"A34","A42",1258,"A61","A72",2,"A92","A101",4,"A122",22,"A143","A151",2,"A172",1,"A191","A201","Good"
"A11",24,"A32","A43",1823,"A61","A71",4,"A93","A101",2,"A123",30,"A142","A152",1,"A174",2,"A191","A201","Bad"
"A14",15,"A31","A43",1569,"A62","A75",4,"A93","A101",4,"A123",34,"A141","A152",1,"A172",2,"A191","A201","Good"
"A14",6,"A32","A40",672,"A61","A71",1,"A92","A101",4,"A121",54,"A143","A152",1,"A171",1,"A192","A201","Good"
"A13",24,"A34","A49",1275,"A64","A73",2,"A91","A101",4,"A121",36,"A143","A152",2,"A173",1,"A192","A201","Good"
"A11",18,"A32","A43",1882,"A61","A73",4,"A92","A101",4,"A123",25,"A141","A151",2,"A173",1,"A191","A201","Bad"
"A11",24,"A33","A40",1333,"A61","A71",4,"A93","A101",2,"A121",43,"A143","A153",2,"A173",2,"A191","A201","Bad"
"A11",18,"A31","A43",1940,"A61","A72",3,"A93","A102",4,"A124",36,"A141","A153",1,"A174",1,"A192","A201","Good"
"A11",18,"A32","A42",1131,"A61","A71",4,"A92","A101",2,"A123",33,"A143","A152",1,"A173",1,"A191","A201","Bad"
"A14",12,"A32","A46",719,"A61","A75",4,"A93","A101",4,"A123",41,"A141","A152",1,"A172",2,"A191","A201","Bad"
"A12",12,"A32","A43",1155,"A61","A75",3,"A94","A103",3,"A121",40,"A141","A152",2,"A172",1,"A191","A201","Good"
"A12",9,"A34","A43",1154,"A61","A75",2,"A93","A101",4,"A121",37,"A143","A152",3,"A172",1,"A191","A201","Good"
"A11",18,"A32","A42",2039,"A61","A73",1,"A92","A101",4,"A121",20,"A141","A151",1,"A173",1,"A191","A201","Bad"
"A12",24,"A32","A42",4057,"A61","A74",3,"A91","A101",3,"A123",43,"A143","A152",1,"A173",1,"A192","A201","Bad"
"A14",30,"A34","A43",5771,"A61","A74",4,"A92","A101",2,"A123",25,"A143","A152",2,"A173",1,"A191","A201","Good"
"A12",9,"A34","A46",1136,"A64","A75",4,"A93","A101",3,"A124",32,"A143","A153",2,"A173",2,"A191","A201","Bad"
"A14",24,"A34","A43",1851,"A61","A74",4,"A94","A103",2,"A123",33,"A143","A152",2,"A173",1,"A192","A201","Good"
"A14",60,"A32","A40",6527,"A65","A73",4,"A93","A101",4,"A124",34,"A143","A153",1,"A173",2,"A192","A201","Good"
"A12",12,"A32","A42",1922,"A61","A73",4,"A93","A101",2,"A122",37,"A143","A152",1,"A172",1,"A191","A201","Bad"
"A14",24,"A34","A42",1585,"A61","A74",4,"A93","A101",3,"A122",40,"A143","A152",2,"A173",1,"A191","A201","Good"
"A14",12,"A32","A42",1123,"A63","A73",4,"A92","A101",4,"A123",29,"A143","A151",1,"A172",1,"A191","A201","Bad"
"A11",40,"A34","A46",5998,"A61","A73",4,"A93","A101",3,"A124",27,"A141","A152",1,"A173",1,"A192","A201","Bad"
"A14",21,"A33","A42",1591,"A62","A74",4,"A93","A101",3,"A121",34,"A143","A152",2,"A174",1,"A191","A201","Good"
"A14",12,"A34","A43",717,"A61","A75",4,"A93","A101",4,"A121",52,"A143","A152",3,"A173",1,"A191","A201","Good"
"A12",9,"A32","A42",2030,"A65","A74",2,"A93","A101",1,"A123",24,"A143","A152",1,"A173",1,"A192","A201","Good"
"A11",15,"A32","A40",1403,"A61","A73",2,"A92","A101",4,"A123",28,"A143","A151",1,"A173",1,"A191","A201","Good"
"A11",18,"A32","A42",3650,"A61","A72",1,"A92","A101",4,"A123",22,"A143","A151",1,"A173",1,"A191","A201","Good"
"A14",12,"A32","A46",1393,"A61","A75",4,"A93","A101",4,"A122",47,"A141","A152",3,"A173",2,"A192","A201","Good"
"A11",24,"A33","A40",4870,"A61","A73",3,"A93","A101",4,"A124",53,"A143","A153",2,"A173",2,"A191","A201","Bad"
"A14",12,"A32","A43",1262,"A61","A73",3,"A93","A101",2,"A123",25,"A143","A152",1,"A173",1,"A191","A201","Good"
"A12",12,"A34","A40",2366,"A63","A74",3,"A91","A101",3,"A123",36,"A143","A152",1,"A174",1,"A192","A201","Good"
"A12",18,"A34","A42",1928,"A61","A72",2,"A93","A101",2,"A121",31,"A143","A152",2,"A172",1,"A191","A201","Bad"
"A14",36,"A34","A40",3535,"A61","A74",4,"A93","A101",4,"A123",37,"A143","A152",2,"A173",1,"A192","A201","Good"
"A12",30,"A33","A49",2503,"A62","A75",4,"A93","A101",2,"A122",41,"A142","A152",2,"A173",1,"A191","A201","Good"
"A11",15,"A32","A44",1275,"A65","A73",4,"A92","A101",2,"A123",24,"A143","A151",1,"A173",1,"A191","A201","Bad"
"A12",48,"A32","A49",15672,"A61","A73",2,"A93","A101",2,"A123",23,"A143","A152",1,"A173",1,"A192","A201","Bad"
"A14",48,"A33","A43",7238,"A65","A75",3,"A93","A101",3,"A123",32,"A141","A152",2,"A173",2,"A191","A201","Good"
"A14",24,"A34","A40",2022,"A61","A73",4,"A92","A101",4,"A123",37,"A143","A152",1,"A173",1,"A192","A201","Good"
"A12",36,"A34","A43",2337,"A61","A75",4,"A93","A101",4,"A121",36,"A143","A152",1,"A173",1,"A191","A201","Good"
"A12",24,"A34","A40",3878,"A62","A72",4,"A91","A101",2,"A123",37,"A143","A152",1,"A173",1,"A192","A201","Good"
"A14",18,"A34","A40",1055,"A61","A72",4,"A92","A101",1,"A122",30,"A143","A152",2,"A173",1,"A191","A201","Good"
"A11",24,"A32","A40",1371,"A65","A73",4,"A92","A101",4,"A121",25,"A143","A151",1,"A173",1,"A191","A201","Bad"
"A14",15,"A34","A42",1520,"A65","A75",4,"A93","A101",4,"A122",63,"A143","A152",1,"A173",1,"A191","A201","Good"
"A14",36,"A32","A43",2299,"A63","A75",4,"A93","A101",4,"A123",39,"A143","A152",1,"A173",1,"A191","A201","Good"
"A14",30,"A34","A43",3077,"A65","A75",3,"A93","A101",2,"A123",40,"A143","A152",2,"A173",2,"A192","A201","Good"
"A13",10,"A32","A44",1225,"A61","A73",2,"A93","A101",2,"A123",37,"A143","A152",1,"A173",1,"A192","A201","Good"
"A12",27,"A34","A43",2520,"A63","A73",4,"A93","A101",2,"A122",23,"A143","A152",2,"A172",1,"A191","A201","Bad"
"A14",36,"A32","A43",3835,"A65","A75",2,"A92","A101",4,"A121",45,"A143","A152",1,"A172",1,"A192","A201","Good"
"A14",7,"A34","A43",730,"A65","A75",4,"A93","A101",2,"A122",46,"A143","A151",2,"A172",1,"A192","A201","Good"
"A12",24,"A33","A42",2333,"A65","A72",4,"A93","A101",2,"A122",29,"A141","A152",1,"A172",1,"A191","A201","Good"
"A14",48,"A32","A49",3914,"A65","A73",4,"A91","A101",2,"A121",38,"A141","A152",1,"A173",1,"A191","A201","Bad"
"A14",12,"A33","A41",1503,"A61","A73",4,"A94","A101",4,"A121",41,"A143","A151",1,"A173",1,"A191","A201","Good"
"A14",15,"A34","A42",2788,"A61","A74",2,"A92","A102",3,"A123",24,"A141","A152",2,"A173",1,"A191","A201","Good"
"A12",15,"A32","A45",2631,"A62","A73",3,"A92","A101",2,"A121",25,"A143","A152",1,"A172",1,"A191","A201","Good"
"A11",8,"A34","A410",1164,"A61","A75",3,"A93","A101",4,"A124",51,"A141","A153",2,"A174",2,"A192","A201","Good"
"A14",36,"A32","A43",2394,"A65","A73",4,"A92","A101",4,"A123",25,"A143","A152",1,"A173",1,"A191","A201","Good"
"A14",6,"A34","A40",250,"A64","A73",2,"A92","A101",2,"A121",41,"A141","A152",2,"A172",1,"A191","A201","Good"
"A14",48,"A34","A41",8858,"A65","A74",2,"A93","A101",1,"A124",35,"A143","A153",2,"A173",1,"A192","A201","Good"
"A14",24,"A32","A42",2835,"A63","A75",3,"A93","A101",4,"A122",53,"A143","A152",1,"A173",1,"A191","A201","Good"
"A11",12,"A34","A40",2171,"A61","A73",4,"A93","A101",4,"A122",38,"A141","A152",2,"A172",1,"A191","A202","Good"
"A14",24,"A32","A43",1413,"A61","A73",4,"A94","A101",2,"A122",28,"A143","A152",1,"A173",1,"A191","A201","Good"
"A14",12,"A34","A42",1592,"A64","A74",3,"A92","A101",2,"A122",35,"A143","A152",1,"A173",1,"A191","A202","Good"
"A11",24,"A30","A42",4110,"A61","A75",3,"A93","A101",4,"A124",23,"A141","A151",2,"A173",2,"A191","A201","Bad"
"A11",24,"A32","A42",7721,"A65","A72",1,"A92","A101",2,"A122",30,"A143","A152",1,"A173",1,"A192","A202","Good"
"A14",36,"A32","A46",9055,"A65","A73",2,"A93","A101",4,"A124",35,"A143","A153",1,"A172",2,"A192","A201","Good"
"A14",12,"A32","A43",886,"A65","A73",4,"A92","A101",2,"A123",21,"A143","A152",1,"A173",1,"A191","A201","Good"
"A12",24,"A34","A46",5743,"A61","A72",2,"A92","A101",4,"A124",24,"A143","A153",2,"A173",1,"A192","A201","Good"
"A14",9,"A32","A40",3577,"A62","A73",1,"A93","A103",2,"A121",26,"A143","A151",1,"A173",2,"A191","A202","Good"
"A12",12,"A30","A48",1410,"A61","A73",2,"A93","A101",2,"A121",31,"A143","A152",1,"A172",1,"A192","A201","Good"
"A14",12,"A34","A43",1934,"A61","A75",2,"A93","A101",2,"A124",26,"A143","A152",2,"A173",1,"A191","A201","Good"
"A12",18,"A32","A49",1941,"A64","A73",4,"A93","A101",2,"A122",35,"A143","A152",1,"A172",1,"A192","A201","Good"
"A14",12,"A34","A49",1185,"A61","A73",3,"A92","A101",2,"A121",27,"A143","A152",2,"A173",1,"A191","A201","Good"
"A14",24,"A32","A42",3062,"A63","A75",4,"A93","A101",3,"A124",32,"A143","A151",1,"A173",1,"A192","A201","Good"
"A14",30,"A34","A43",5954,"A61","A74",3,"A93","A102",2,"A123",38,"A143","A152",1,"A173",1,"A191","A201","Good"
"A14",15,"A32","A44",1262,"A63","A74",4,"A93","A101",3,"A122",36,"A143","A152",2,"A173",1,"A192","A201","Good"
"A14",6,"A32","A43",1595,"A61","A74",3,"A93","A101",2,"A122",51,"A143","A152",1,"A173",2,"A191","A201","Good"
"A12",36,"A32","A45",2384,"A61","A72",4,"A93","A101",1,"A124",33,"A143","A151",1,"A172",1,"A191","A201","Bad"
"A12",18,"A34","A40",1056,"A61","A75",3,"A93","A103",3,"A121",30,"A141","A152",2,"A173",1,"A191","A201","Bad"
"A14",9,"A34","A46",936,"A63","A75",4,"A93","A101",2,"A123",52,"A143","A152",2,"A173",1,"A192","A201","Good"
"A12",20,"A33","A41",7057,"A65","A74",3,"A93","A101",4,"A122",36,"A141","A151",2,"A174",2,"A192","A201","Good"
"A14",27,"A34","A42",4526,"A64","A72",4,"A93","A101",2,"A121",32,"A142","A152",2,"A172",2,"A192","A201","Good"
"A14",36,"A32","A41",8133,"A61","A73",1,"A92","A101",2,"A122",30,"A141","A152",1,"A173",1,"A191","A201","Good"
"A11",10,"A34","A40",2241,"A61","A72",1,"A93","A101",3,"A121",48,"A143","A151",2,"A172",2,"A191","A202","Good"
"A14",6,"A34","A40",2080,"A63","A73",1,"A94","A101",2,"A123",24,"A143","A152",1,"A173",1,"A191","A201","Good"
"A12",30,"A32","A43",1715,"A65","A73",4,"A92","A101",1,"A123",26,"A143","A152",1,"A173",1,"A191","A201","Good"
"A11",12,"A32","A42",7865,"A61","A75",4,"A93","A101",4,"A124",53,"A143","A153",1,"A174",1,"A192","A201","Bad"
"A14",18,"A33","A42",1808,"A61","A74",4,"A92","A101",1,"A121",22,"A143","A152",1,"A173",1,"A191","A201","Bad"
"A14",10,"A32","A40",1597,"A63","A73",3,"A93","A101",2,"A124",40,"A143","A151",1,"A172",2,"A191","A202","Good"
"A12",48,"A30","A49",3844,"A62","A74",4,"A93","A101",4,"A124",34,"A143","A153",1,"A172",2,"A191","A201","Bad"
"A14",6,"A34","A43",1237,"A62","A73",1,"A92","A101",1,"A122",27,"A143","A152",2,"A173",1,"A191","A201","Good"
"A12",18,"A30","A40",2278,"A62","A72",3,"A92","A101",3,"A123",28,"A143","A152",2,"A173",1,"A191","A201","Bad"
"A14",24,"A34","A41",4042,"A65","A74",3,"A93","A101",4,"A122",43,"A143","A152",2,"A173",1,"A192","A201","Good"
"A14",12,"A34","A43",976,"A65","A75",4,"A93","A101",4,"A123",35,"A143","A152",2,"A173",1,"A191","A201","Good"
"A12",12,"A32","A48",754,"A65","A75",4,"A93","A101",4,"A122",38,"A143","A152",2,"A173",1,"A191","A201","Good"
"A12",18,"A32","A41",2779,"A61","A73",1,"A94","A101",3,"A123",21,"A143","A151",1,"A173",1,"A192","A201","Good"
"A14",28,"A34","A43",2743,"A61","A75",4,"A93","A101",2,"A123",29,"A143","A152",2,"A173",1,"A191","A201","Good"
"A11",30,"A30","A42",4583,"A61","A73",2,"A91","A103",2,"A121",32,"A143","A152",2,"A173",1,"A191","A201","Good"
"A12",48,"A32","A43",3060,"A61","A74",4,"A93","A101",4,"A121",28,"A143","A152",2,"A173",1,"A191","A201","Bad"
"A14",54,"A30","A41",9436,"A65","A73",2,"A93","A101",2,"A122",39,"A143","A152",1,"A172",2,"A191","A201","Good"
"A12",13,"A34","A43",882,"A61","A72",4,"A93","A103",4,"A121",23,"A143","A152",2,"A173",1,"A191","A201","Good"
"A14",12,"A34","A40",682,"A62","A74",4,"A92","A101",3,"A123",51,"A143","A152",2,"A173",1,"A192","A201","Good"
"A11",15,"A33","A42",3643,"A61","A75",1,"A92","A101",4,"A122",27,"A143","A152",2,"A172",1,"A191","A201","Good"
"A11",36,"A32","A41",8229,"A61","A73",2,"A93","A101",2,"A122",26,"A143","A152",1,"A173",2,"A191","A201","Bad"
"A12",9,"A32","A43",1670,"A61","A72",4,"A92","A101",2,"A123",22,"A143","A152",1,"A173",1,"A192","A201","Bad"
"A11",36,"A33","A49",2145,"A61","A74",2,"A93","A101",1,"A123",24,"A143","A152",2,"A173",1,"A192","A201","Bad"
"A14",18,"A34","A43",1582,"A64","A75",4,"A93","A101",4,"A123",46,"A143","A152",2,"A173",1,"A191","A201","Good"
"A12",24,"A32","A43",2039,"A61","A72",1,"A94","A101",1,"A122",22,"A143","A152",1,"A173",1,"A192","A201","Bad"
"A11",18,"A32","A40",2249,"A62","A74",4,"A93","A101",3,"A123",30,"A143","A152",1,"A174",2,"A192","A201","Good"
"A12",9,"A31","A40",1437,"A62","A74",2,"A93","A101",3,"A124",29,"A143","A152",1,"A173",1,"A191","A201","Bad"
"A14",48,"A34","A41",11590,"A62","A73",2,"A92","A101",4,"A123",24,"A141","A151",2,"A172",1,"A191","A201","Bad"
"A12",24,"A34","A410",11938,"A61","A73",2,"A93","A102",3,"A123",39,"A143","A152",2,"A174",2,"A192","A201","Bad"
"A12",18,"A34","A49",1887,"A65","A73",4,"A94","A101",4,"A121",28,"A141","A152",2,"A173",1,"A191","A201","Good"
"A12",12,"A32","A49",841,"A62","A74",2,"A92","A101",4,"A121",23,"A143","A151",1,"A172",1,"A191","A201","Good"
"A14",5,"A32","A49",3448,"A61","A74",1,"A93","A101",4,"A121",74,"A143","A152",1,"A172",1,"A191","A201","Good"
"A14",24,"A32","A43",999,"A65","A75",4,"A93","A101",2,"A123",25,"A143","A152",2,"A173",1,"A191","A201","Good"
"A12",12,"A34","A44",1424,"A61","A74",4,"A93","A101",3,"A122",26,"A143","A152",1,"A173",1,"A191","A201","Good"
"A13",21,"A34","A46",2319,"A61","A72",2,"A91","A101",1,"A123",33,"A143","A151",1,"A173",1,"A191","A201","Bad"
"A14",12,"A34","A43",797,"A65","A75",4,"A92","A101",3,"A122",33,"A141","A152",1,"A172",2,"A191","A201","Bad"
"A12",15,"A31","A40",1264,"A62","A73",2,"A94","A101",2,"A122",25,"A143","A151",1,"A173",1,"A191","A201","Bad"
"A14",24,"A32","A41",5433,"A65","A71",2,"A92","A101",4,"A122",26,"A143","A151",1,"A174",1,"A192","A201","Good"
"A14",6,"A34","A43",1382,"A61","A73",1,"A92","A101",1,"A123",28,"A143","A152",2,"A173",1,"A192","A201","Good"
"A14",9,"A32","A40",2507,"A63","A75",2,"A93","A101",4,"A124",51,"A143","A153",1,"A172",1,"A191","A201","Good"
"A11",18,"A32","A40",4380,"A62","A73",3,"A93","A101",4,"A123",35,"A143","A152",1,"A172",2,"A192","A201","Good"
"A12",18,"A34","A43",1795,"A61","A75",3,"A92","A103",4,"A121",48,"A141","A151",2,"A172",1,"A192","A201","Good"
"A11",48,"A32","A49",4308,"A61","A72",3,"A92","A101",4,"A122",24,"A143","A151",1,"A173",1,"A191","A201","Bad"
"A14",24,"A34","A43",2684,"A61","A73",4,"A93","A101",2,"A121",35,"A143","A152",2,"A172",1,"A191","A201","Good"
"A14",48,"A34","A40",10127,"A63","A73",2,"A93","A101",2,"A124",44,"A141","A153",1,"A173",1,"A191","A201","Bad"
"A12",15,"A32","A43",802,"A61","A75",4,"A93","A101",3,"A123",37,"A143","A152",1,"A173",2,"A191","A201","Bad"
"A11",48,"A32","A44",3051,"A61","A73",3,"A93","A101",4,"A123",54,"A143","A152",1,"A173",1,"A191","A201","Bad"
"A14",4,"A32","A42",601,"A61","A72",1,"A92","A101",3,"A121",23,"A143","A151",1,"A172",2,"A191","A201","Good"
"A11",47,"A32","A40",10722,"A61","A72",1,"A92","A101",1,"A121",35,"A143","A152",1,"A172",1,"A192","A201","Good"
"A14",24,"A32","A43",2284,"A61","A74",4,"A93","A101",2,"A123",28,"A143","A152",1,"A173",1,"A192","A201","Good"
"A12",24,"A31","A46",1837,"A61","A74",4,"A92","A101",4,"A124",34,"A141","A153",1,"A172",1,"A191","A201","Bad"
"A14",15,"A33","A42",960,"A64","A74",3,"A92","A101",2,"A122",30,"A143","A152",2,"A173",1,"A191","A201","Good"
"A14",9,"A34","A40",1224,"A61","A73",3,"A93","A101",1,"A121",30,"A143","A152",2,"A173",1,"A191","A201","Good"
"A14",15,"A32","A41",3029,"A61","A74",2,"A93","A101",2,"A123",33,"A143","A152",1,"A173",1,"A191","A201","Good"
"A14",36,"A32","A42",3349,"A61","A73",4,"A92","A101",2,"A123",28,"A143","A152",1,"A174",1,"A192","A201","Bad"
"A13",12,"A33","A40",2247,"A61","A73",2,"A92","A101",2,"A123",36,"A142","A152",2,"A173",1,"A192","A201","Good"
"A12",24,"A32","A43",3092,"A62","A72",3,"A94","A101",2,"A123",22,"A143","A151",1,"A173",1,"A192","A201","Bad"
"A13",36,"A32","A43",4210,"A61","A73",4,"A93","A101",2,"A123",26,"A143","A152",1,"A173",1,"A191","A201","Bad"
"A12",18,"A34","A43",1245,"A61","A73",4,"A94","A101",2,"A123",33,"A143","A152",1,"A173",1,"A191","A201","Bad"
"A14",18,"A34","A46",1864,"A62","A73",4,"A92","A101",2,"A121",30,"A143","A152",2,"A173",1,"A191","A201","Bad"
"A13",6,"A33","A43",683,"A61","A72",2,"A92","A101",1,"A122",29,"A141","A152",1,"A173",1,"A191","A201","Good"
"A14",36,"A34","A40",7855,"A61","A73",4,"A92","A101",2,"A121",25,"A142","A152",2,"A173",1,"A192","A201","Bad"
"A12",24,"A33","A42",2064,"A61","A71",3,"A92","A101",2,"A122",34,"A143","A152",1,"A174",1,"A192","A201","Bad"
"A13",18,"A32","A40",1961,"A61","A75",3,"A92","A101",2,"A123",23,"A143","A152",1,"A174",1,"A191","A201","Good"
"A12",12,"A34","A41",1860,"A61","A71",4,"A93","A101",2,"A123",34,"A143","A152",2,"A174",1,"A192","A201","Good"
"A11",24,"A32","A40",1442,"A61","A74",4,"A92","A101",4,"A123",23,"A143","A151",2,"A173",1,"A191","A201","Bad"
"A14",36,"A33","A49",9572,"A61","A72",1,"A91","A101",1,"A123",28,"A143","A152",2,"A173",1,"A191","A201","Bad"
"A11",12,"A32","A42",1620,"A61","A73",2,"A92","A102",3,"A122",30,"A143","A152",1,"A173",1,"A191","A201","Good"
"A14",24,"A34","A42",5150,"A61","A75",4,"A93","A101",4,"A123",33,"A143","A152",1,"A173",1,"A192","A201","Good"
"A12",48,"A30","A49",14421,"A61","A73",2,"A93","A101",2,"A123",25,"A143","A152",1,"A173",1,"A192","A201","Bad"
"A14",21,"A34","A42",2288,"A61","A72",4,"A92","A101",4,"A122",23,"A143","A152",1,"A173",1,"A192","A201","Good"
"A12",10,"A32","A40",7308,"A61","A71",2,"A93","A101",4,"A124",70,"A141","A153",1,"A174",1,"A192","A201","Good"
"A12",9,"A32","A49",1391,"A61","A73",2,"A94","A101",1,"A121",27,"A141","A152",1,"A173",1,"A192","A201","Good"
"A14",30,"A34","A43",4530,"A61","A74",4,"A92","A101",4,"A123",26,"A143","A151",1,"A174",1,"A192","A201","Good"
"A11",21,"A32","A40",3763,"A65","A74",2,"A93","A102",2,"A121",24,"A143","A152",1,"A172",1,"A191","A202","Good"
"A12",24,"A33","A40",1965,"A65","A73",4,"A92","A101",4,"A123",42,"A143","A151",2,"A173",1,"A192","A201","Good"
"A14",18,"A32","A49",1568,"A62","A73",3,"A92","A101",4,"A122",24,"A143","A151",1,"A172",1,"A191","A201","Good"
"A14",24,"A33","A40",2032,"A61","A75",4,"A93","A101",4,"A124",60,"A143","A153",2,"A173",1,"A192","A201","Good"
"A13",10,"A32","A40",3949,"A61","A72",1,"A93","A103",1,"A122",37,"A143","A152",1,"A172",2,"A191","A201","Good"
"A11",36,"A32","A40",9271,"A61","A74",2,"A93","A101",1,"A123",24,"A143","A152",1,"A173",1,"A192","A201","Bad"
"A14",36,"A34","A40",6614,"A61","A75",4,"A93","A101",4,"A123",34,"A143","A152",2,"A174",1,"A192","A201","Good"
"A11",11,"A34","A40",3939,"A61","A73",1,"A93","A101",2,"A121",40,"A143","A152",2,"A172",2,"A191","A201","Good"
"A14",11,"A34","A40",7228,"A61","A73",1,"A93","A101",4,"A122",39,"A143","A152",2,"A172",1,"A191","A201","Good"
"A11",24,"A32","A43",2439,"A61","A72",4,"A92","A101",4,"A121",35,"A143","A152",1,"A173",1,"A192","A201","Bad"
"A14",24,"A33","A49",8648,"A61","A72",2,"A93","A101",2,"A123",27,"A141","A152",2,"A173",1,"A192","A201","Bad"
"A12",16,"A34","A40",1175,"A61","A71",2,"A93","A101",3,"A123",68,"A143","A153",3,"A171",1,"A192","A201","Good"
"A14",6,"A32","A40",3518,"A61","A73",2,"A93","A103",3,"A122",26,"A143","A151",1,"A173",1,"A191","A201","Good"
"A11",12,"A32","A43",701,"A61","A73",4,"A94","A101",2,"A121",40,"A143","A152",1,"A172",1,"A191","A201","Good"
"A11",24,"A34","A41",6419,"A61","A75",2,"A92","A101",4,"A124",44,"A143","A153",2,"A174",2,"A192","A201","Good"
"A14",21,"A32","A41",2476,"A65","A75",4,"A93","A101",4,"A121",46,"A143","A152",1,"A174",1,"A192","A201","Good"
"A12",18,"A32","A40",6260,"A61","A74",3,"A93","A101",3,"A121",28,"A143","A151",1,"A172",1,"A191","A201","Good"
"A12",12,"A32","A43",1331,"A61","A72",2,"A93","A101",1,"A123",22,"A142","A152",1,"A173",1,"A191","A201","Bad"
"A11",12,"A34","A42",2246,"A61","A75",3,"A93","A101",3,"A122",60,"A143","A152",2,"A173",1,"A191","A201","Bad"
"A14",6,"A32","A42",4611,"A61","A72",1,"A92","A101",4,"A122",32,"A143","A152",1,"A173",1,"A191","A201","Bad"
"A14",24,"A34","A43",2424,"A65","A75",4,"A93","A101",4,"A122",53,"A143","A152",2,"A173",1,"A191","A201","Good"
"A12",24,"A32","A42",4351,"A65","A73",1,"A92","A101",4,"A122",48,"A143","A152",1,"A172",1,"A192","A201","Good"
"A14",60,"A34","A40",13756,"A65","A75",2,"A93","A101",4,"A124",63,"A141","A153",1,"A174",1,"A192","A201","Good"
"A14",15,"A32","A41",1300,"A65","A75",4,"A93","A101",4,"A124",45,"A141","A153",1,"A173",2,"A191","A201","Good"
"A14",15,"A34","A43",1360,"A61","A73",4,"A93","A101",2,"A122",31,"A143","A152",2,"A173",1,"A191","A201","Good"
"A12",12,"A33","A43",585,"A61","A73",4,"A94","A102",4,"A121",20,"A143","A151",2,"A173",1,"A191","A201","Good"
"A12",6,"A32","A43",2063,"A61","A72",4,"A94","A101",3,"A123",30,"A143","A151",1,"A174",1,"A192","A201","Good"
"A12",8,"A32","A43",1414,"A61","A73",4,"A93","A103",2,"A121",33,"A143","A152",1,"A173",1,"A191","A202","Good"
"A12",15,"A30","A40",1778,"A61","A72",2,"A92","A101",1,"A121",26,"A143","A151",2,"A171",1,"A191","A201","Bad"
"A11",12,"A34","A41",1409,"A61","A75",4,"A93","A101",3,"A121",54,"A143","A152",1,"A173",1,"A191","A201","Good"
"A14",48,"A31","A49",3609,"A61","A73",1,"A92","A101",1,"A121",27,"A142","A152",1,"A173",1,"A191","A201","Good"
"A14",12,"A34","A40",926,"A61","A71",1,"A92","A101",2,"A122",38,"A143","A152",1,"A171",1,"A191","A201","Good"
"A11",18,"A32","A43",1345,"A61","A73",4,"A94","A101",3,"A121",26,"A141","A152",1,"A173",1,"A191","A201","Bad"
"A14",9,"A32","A42",1388,"A61","A73",4,"A92","A101",2,"A121",26,"A143","A151",1,"A173",1,"A191","A201","Good"
"A11",9,"A32","A43",1366,"A61","A72",3,"A92","A101",4,"A122",22,"A143","A151",1,"A173",1,"A191","A201","Bad"
"A11",12,"A32","A40",1893,"A61","A73",4,"A92","A103",4,"A122",29,"A143","A152",1,"A173",1,"A192","A201","Good"
"A14",48,"A32","A43",10222,"A65","A74",4,"A93","A101",3,"A123",37,"A142","A152",1,"A173",1,"A192","A201","Good"
"A12",15,"A34","A43",1537,"A65","A75",4,"A93","A103",4,"A121",50,"A143","A152",2,"A173",1,"A192","A201","Good"
"A11",30,"A32","A45",11998,"A61","A72",1,"A91","A101",1,"A124",34,"A143","A152",1,"A172",1,"A192","A201","Bad"
"A14",6,"A31","A40",783,"A65","A73",1,"A93","A103",2,"A121",26,"A142","A152",1,"A172",2,"A191","A201","Good"
"A14",12,"A34","A43",618,"A61","A75",4,"A93","A101",4,"A121",56,"A143","A152",1,"A173",1,"A191","A201","Good"
"A12",24,"A32","A40",3512,"A62","A74",2,"A93","A101",3,"A123",38,"A141","A152",2,"A173",1,"A192","A201","Good"
"A14",12,"A34","A42",5801,"A65","A75",2,"A93","A101",4,"A122",49,"A143","A151",1,"A173",1,"A192","A201","Good"
"A14",12,"A32","A43",804,"A61","A75",4,"A93","A101",4,"A123",38,"A143","A152",1,"A173",1,"A191","A201","Good"
"A11",18,"A32","A43",2389,"A61","A72",4,"A92","A101",1,"A123",27,"A142","A152",1,"A173",1,"A191","A201","Good"
"A12",24,"A32","A40",1201,"A61","A72",4,"A93","A101",1,"A122",26,"A143","A152",1,"A173",1,"A191","A201","Good"
"A11",6,"A34","A43",1957,"A61","A74",1,"A92","A101",4,"A123",31,"A143","A152",1,"A173",1,"A191","A201","Good"
"A14",24,"A34","A43",2611,"A61","A75",4,"A94","A102",3,"A121",46,"A143","A152",2,"A173",1,"A191","A201","Good"
"A14",15,"A32","A43",1213,"A63","A75",4,"A93","A101",3,"A122",47,"A142","A152",1,"A173",1,"A192","A201","Good"
"A14",36,"A33","A40",10875,"A61","A75",2,"A93","A101",2,"A123",45,"A143","A152",2,"A173",2,"A192","A201","Good"
"A14",18,"A34","A43",6070,"A61","A75",3,"A93","A101",4,"A123",33,"A143","A152",2,"A173",1,"A192","A201","Good"
"A12",12,"A32","A43",1092,"A61","A73",4,"A92","A103",4,"A121",49,"A143","A152",2,"A173",1,"A192","A201","Good"
"A14",18,"A34","A40",1530,"A61","A73",3,"A93","A101",2,"A122",32,"A141","A152",2,"A173",1,"A191","A201","Bad"
"A11",27,"A34","A49",2442,"A61","A75",4,"A93","A101",4,"A123",43,"A142","A152",4,"A174",2,"A192","A201","Good"
"A11",24,"A32","A42",4020,"A61","A73",2,"A93","A101",2,"A123",27,"A142","A152",1,"A173",1,"A191","A201","Good"
"A11",12,"A34","A40",3499,"A61","A73",3,"A92","A102",2,"A121",29,"A143","A152",2,"A173",1,"A191","A201","Bad"
"A14",18,"A34","A43",1098,"A61","A71",4,"A92","A101",4,"A123",65,"A143","A152",2,"A171",1,"A191","A201","Good"
"A12",36,"A32","A43",2671,"A62","A73",4,"A92","A102",4,"A124",50,"A143","A153",1,"A173",1,"A191","A201","Bad"
"A11",48,"A32","A46",7476,"A61","A74",4,"A93","A101",1,"A124",50,"A143","A153",1,"A174",1,"A192","A201","Good"
"A11",24,"A32","A410",1755,"A61","A75",4,"A92","A103",4,"A121",58,"A143","A152",1,"A172",1,"A192","A201","Good"
"A12",12,"A32","A40",1007,"A64","A73",4,"A94","A101",1,"A121",22,"A143","A152",1,"A173",1,"A191","A201","Good"
"A14",15,"A34","A46",1532,"A62","A73",4,"A92","A101",3,"A123",31,"A143","A152",1,"A173",1,"A191","A201","Good"
"A14",36,"A33","A42",7678,"A63","A74",2,"A92","A101",4,"A123",40,"A143","A152",2,"A173",1,"A192","A201","Good"
"A14",18,"A32","A43",433,"A61","A71",3,"A92","A102",4,"A121",22,"A143","A151",1,"A173",1,"A191","A201","Bad"
"A11",12,"A32","A46",684,"A61","A73",4,"A93","A101",4,"A123",40,"A143","A151",1,"A172",2,"A191","A201","Bad"
"A12",9,"A32","A43",790,"A63","A73",4,"A92","A101",3,"A121",66,"A143","A152",1,"A172",1,"A191","A201","Good"
"A13",10,"A32","A42",1275,"A61","A72",4,"A92","A101",2,"A122",23,"A143","A152",1,"A173",1,"A191","A201","Good"
"A14",9,"A32","A42",1980,"A61","A72",2,"A92","A102",2,"A123",19,"A143","A151",2,"A173",1,"A191","A201","Bad"
"A11",36,"A32","A42",3446,"A61","A75",4,"A93","A101",2,"A123",42,"A143","A152",1,"A173",2,"A191","A201","Bad"
"A14",6,"A32","A43",1346,"A62","A75",2,"A93","A101",4,"A124",42,"A141","A153",1,"A173",2,"A192","A201","Good"
"A12",36,"A33","A40",8086,"A62","A75",2,"A93","A101",4,"A123",42,"A143","A152",4,"A174",1,"A192","A201","Bad"
"A14",12,"A32","A43",2073,"A62","A73",4,"A92","A102",2,"A121",28,"A143","A152",1,"A173",1,"A191","A201","Good"
"A11",9,"A32","A42",2136,"A61","A73",3,"A93","A101",2,"A121",25,"A143","A152",1,"A173",1,"A191","A201","Good"
"A14",36,"A30","A45",2613,"A61","A73",4,"A93","A101",2,"A123",27,"A143","A152",2,"A173",1,"A191","A201","Good"
"A12",12,"A32","A40",1223,"A61","A75",1,"A91","A101",1,"A121",46,"A143","A151",2,"A173",1,"A191","A201","Bad"
"A14",6,"A33","A49",1743,"A62","A73",1,"A93","A101",2,"A121",34,"A143","A152",2,"A172",1,"A191","A201","Good"
"A12",18,"A32","A43",866,"A61","A73",4,"A94","A103",2,"A121",25,"A143","A152",1,"A172",1,"A191","A201","Good"
"A14",24,"A32","A40",1249,"A61","A72",4,"A94","A101",2,"A121",28,"A143","A152",1,"A173",1,"A191","A201","Good"
"A11",18,"A34","A42",1049,"A61","A72",4,"A92","A101",4,"A122",21,"A143","A151",1,"A173",1,"A191","A201","Good"
"A11",24,"A32","A42",2359,"A62","A71",1,"A91","A101",1,"A122",33,"A143","A152",1,"A173",1,"A191","A201","Bad"
"A12",24,"A33","A43",6403,"A61","A72",1,"A93","A101",2,"A123",33,"A143","A152",1,"A173",1,"A191","A201","Good"
"A13",15,"A32","A46",392,"A61","A72",4,"A92","A101",4,"A122",23,"A143","A151",1,"A173",1,"A192","A201","Good"
"A11",9,"A32","A43",1364,"A61","A74",3,"A93","A101",4,"A121",59,"A143","A152",1,"A173",1,"A191","A201","Good"
"A14",36,"A33","A43",4454,"A61","A73",4,"A92","A101",4,"A121",34,"A143","A152",2,"A173",1,"A191","A201","Good"
"A12",24,"A32","A40",1246,"A61","A72",4,"A93","A101",2,"A121",23,"A142","A152",1,"A172",1,"A191","A201","Bad"
"A14",6,"A32","A46",1538,"A61","A72",1,"A92","A101",2,"A124",56,"A143","A152",1,"A173",1,"A191","A201","Good"
"A11",36,"A34","A42",6229,"A61","A72",4,"A92","A102",4,"A124",23,"A143","A151",2,"A172",1,"A192","A201","Bad"
"A14",15,"A34","A43",1471,"A61","A73",4,"A93","A101",4,"A124",35,"A143","A153",2,"A173",1,"A192","A201","Good"
"A12",24,"A32","A43",3758,"A63","A71",1,"A92","A101",4,"A124",23,"A143","A151",1,"A171",1,"A191","A201","Good"
"A14",10,"A32","A40",1364,"A61","A73",2,"A92","A101",4,"A123",64,"A143","A152",1,"A173",1,"A192","A201","Good"
"A11",12,"A32","A40",900,"A65","A73",4,"A94","A101",2,"A123",23,"A143","A152",1,"A173",1,"A191","A201","Bad"
"A11",24,"A32","A42",2996,"A65","A73",2,"A94","A101",4,"A123",20,"A143","A152",1,"A173",1,"A191","A201","Bad"
"A12",45,"A34","A43",4746,"A61","A72",4,"A93","A101",2,"A122",25,"A143","A152",2,"A172",1,"A191","A201","Bad"
"A11",36,"A32","A42",3959,"A61","A71",4,"A93","A101",3,"A122",30,"A143","A152",1,"A174",1,"A192","A201","Good"
"A14",24,"A32","A41",9277,"A65","A73",2,"A91","A101",4,"A124",48,"A143","A153",1,"A173",1,"A192","A201","Good"
"A14",24,"A32","A43",3621,"A62","A75",2,"A93","A101",4,"A123",31,"A143","A152",2,"A173",1,"A191","A201","Bad"
"A11",36,"A32","A41",5493,"A61","A75",2,"A93","A101",4,"A124",42,"A143","A153",1,"A173",2,"A191","A201","Good"
"A12",12,"A32","A45",639,"A61","A73",4,"A93","A101",2,"A123",30,"A143","A152",1,"A173",1,"A191","A201","Bad"
"A14",10,"A34","A42",2069,"A65","A73",2,"A94","A101",1,"A123",26,"A143","A152",2,"A173",1,"A191","A202","Good"
"A14",24,"A34","A46",1927,"A65","A73",3,"A92","A101",2,"A123",33,"A143","A152",2,"A173",1,"A192","A201","Good"
"A14",9,"A34","A42",2406,"A61","A71",2,"A93","A101",3,"A123",31,"A143","A152",1,"A174",1,"A191","A201","Good"
"A11",12,"A32","A42",2577,"A61","A73",2,"A91","A101",1,"A123",42,"A143","A152",1,"A173",1,"A191","A201","Good"
"A12",30,"A34","A40",2181,"A65","A75",4,"A93","A101",4,"A121",36,"A143","A152",2,"A173",1,"A191","A201","Good"
"A12",15,"A32","A45",1514,"A62","A73",4,"A93","A103",2,"A121",22,"A143","A152",1,"A173",1,"A191","A201","Good"
"A12",9,"A32","A43",458,"A61","A73",4,"A93","A101",3,"A121",24,"A143","A152",1,"A173",1,"A191","A201","Good"
"A12",36,"A33","A49",4455,"A61","A73",2,"A91","A101",2,"A121",30,"A142","A152",2,"A174",1,"A192","A201","Bad"
"A11",6,"A32","A40",1374,"A65","A71",4,"A92","A101",3,"A122",75,"A143","A152",1,"A174",1,"A192","A201","Good"
"A14",10,"A34","A40",1231,"A61","A75",3,"A93","A101",4,"A121",32,"A143","A152",2,"A172",2,"A191","A202","Good"
"A13",24,"A32","A42",1925,"A61","A73",2,"A93","A101",2,"A121",26,"A143","A152",1,"A173",1,"A191","A201","Good"
"A14",18,"A32","A49",1950,"A61","A74",4,"A93","A101",1,"A123",34,"A142","A152",2,"A173",1,"A192","A201","Good"
"A12",11,"A32","A42",1577,"A64","A72",4,"A92","A101",1,"A121",20,"A143","A152",1,"A173",1,"A191","A201","Good"
"A14",36,"A32","A49",5742,"A62","A74",2,"A93","A101",2,"A123",31,"A143","A152",2,"A173",1,"A192","A201","Good"
"A14",30,"A32","A43",2333,"A63","A75",4,"A93","A101",2,"A123",30,"A141","A152",1,"A174",1,"A191","A201","Good"
"A14",15,"A33","A41",3594,"A61","A72",1,"A92","A101",2,"A122",46,"A143","A152",2,"A172",1,"A191","A201","Good"
"A11",12,"A31","A43",626,"A61","A73",4,"A92","A101",4,"A121",24,"A141","A152",1,"A172",1,"A191","A201","Bad"
"A14",36,"A33","A43",4463,"A61","A73",4,"A93","A101",2,"A123",26,"A143","A152",2,"A174",1,"A192","A201","Bad"
"A12",24,"A30","A49",4241,"A61","A73",1,"A93","A101",4,"A121",36,"A143","A152",3,"A172",1,"A192","A201","Bad"
"A12",18,"A32","A45",3872,"A61","A71",2,"A92","A101",4,"A123",67,"A143","A152",1,"A173",1,"A192","A201","Good"
"A14",10,"A34","A42",2146,"A61","A72",1,"A92","A101",3,"A121",23,"A143","A151",2,"A173",1,"A191","A201","Good"
"A12",18,"A32","A49",1913,"A64","A72",3,"A94","A101",3,"A121",36,"A141","A152",1,"A173",1,"A192","A201","Good"
"A11",48,"A32","A40",3931,"A61","A74",4,"A93","A101",4,"A124",46,"A143","A153",1,"A173",2,"A191","A201","Bad"
"A14",24,"A32","A43",3105,"A65","A72",4,"A93","A101",2,"A123",25,"A143","A152",2,"A173",1,"A191","A201","Good"
"A11",21,"A33","A46",3414,"A61","A72",2,"A93","A101",1,"A122",26,"A143","A152",2,"A173",1,"A191","A201","Bad"
"A14",6,"A34","A40",6761,"A61","A74",1,"A93","A101",3,"A124",45,"A143","A152",2,"A174",2,"A192","A201","Good"
"A11",30,"A30","A49",8072,"A65","A72",2,"A93","A101",3,"A123",25,"A141","A152",3,"A173",1,"A191","A201","Good"
"A14",24,"A32","A41",2603,"A64","A73",2,"A92","A101",4,"A123",28,"A143","A151",1,"A173",1,"A192","A201","Good"
"A14",48,"A32","A49",4844,"A61","A71",3,"A93","A101",2,"A123",33,"A141","A151",1,"A174",1,"A192","A201","Bad"
"A14",9,"A32","A42",1313,"A61","A75",1,"A93","A101",4,"A123",20,"A143","A152",1,"A173",1,"A191","A201","Good"
"A12",12,"A32","A43",1567,"A61","A73",1,"A92","A101",1,"A123",22,"A143","A152",1,"A173",1,"A192","A201","Good"
"A11",24,"A33","A43",1659,"A61","A72",4,"A92","A101",2,"A123",29,"A143","A151",1,"A172",1,"A192","A201","Bad"
"A12",30,"A33","A43",1919,"A62","A72",4,"A93","A101",3,"A124",30,"A142","A152",2,"A174",1,"A191","A201","Bad"
"A11",48,"A32","A43",6758,"A61","A73",3,"A92","A101",2,"A123",31,"A143","A152",1,"A173",1,"A192","A201","Bad"
"A12",60,"A33","A43",9157,"A65","A73",2,"A93","A101",2,"A124",27,"A143","A153",1,"A174",1,"A191","A201","Good"
"A14",24,"A34","A410",6314,"A61","A71",4,"A93","A102",2,"A124",27,"A141","A152",2,"A174",1,"A192","A201","Good"
"A12",18,"A32","A41",12976,"A61","A71",3,"A92","A101",4,"A124",38,"A143","A153",1,"A174",1,"A192","A201","Bad"
"A12",24,"A32","A41",12579,"A61","A75",4,"A92","A101",2,"A124",44,"A143","A153",1,"A174",1,"A192","A201","Bad"
"A11",18,"A32","A40",1216,"A61","A72",4,"A92","A101",3,"A123",23,"A143","A151",1,"A173",1,"A192","A201","Bad"
"A11",39,"A34","A42",14179,"A65","A74",4,"A93","A101",4,"A122",30,"A143","A152",2,"A174",1,"A192","A201","Good"
"A11",6,"A32","A40",14896,"A61","A75",1,"A93","A101",4,"A124",68,"A141","A152",1,"A174",1,"A192","A201","Bad"
"A14",6,"A30","A40",1204,"A62","A73",4,"A93","A101",1,"A124",35,"A141","A151",1,"A173",1,"A191","A202","Good"
"A11",12,"A32","A42",1289,"A61","A73",4,"A93","A103",1,"A122",21,"A143","A152",1,"A172",1,"A191","A201","Good"
"A11",24,"A32","A41",2812,"A65","A75",2,"A92","A101",4,"A121",26,"A143","A151",1,"A173",1,"A191","A201","Good"
"A12",18,"A33","A45",6204,"A61","A73",2,"A93","A101",4,"A121",44,"A143","A152",1,"A172",2,"A192","A201","Good"
"A11",6,"A32","A46",448,"A61","A72",4,"A92","A101",4,"A122",23,"A143","A152",1,"A173",1,"A191","A201","Bad"
"A14",11,"A32","A49",2142,"A64","A75",1,"A91","A101",2,"A121",28,"A143","A152",1,"A173",1,"A192","A201","Good"
"A12",27,"A30","A49",8318,"A61","A75",2,"A92","A101",4,"A124",42,"A143","A153",2,"A174",1,"A192","A201","Bad"
"A14",6,"A32","A41",1236,"A63","A73",2,"A93","A101",4,"A122",50,"A143","A151",1,"A173",1,"A191","A201","Good"
"A14",48,"A34","A46",6110,"A61","A73",1,"A93","A101",3,"A124",31,"A141","A153",1,"A173",1,"A192","A201","Good"
"A12",18,"A34","A42",7374,"A61","A71",4,"A93","A101",4,"A122",40,"A142","A152",2,"A174",1,"A192","A201","Good"
"A14",12,"A32","A40",640,"A61","A73",4,"A91","A101",2,"A121",49,"A143","A152",1,"A172",1,"A191","A201","Good"
"A11",15,"A32","A49",806,"A61","A73",4,"A92","A101",4,"A122",22,"A143","A152",1,"A172",1,"A191","A201","Good"
"A12",12,"A32","A40",888,"A61","A75",4,"A93","A101",4,"A123",41,"A141","A152",1,"A172",2,"A191","A201","Bad"
"A12",30,"A31","A42",3496,"A64","A73",4,"A93","A101",2,"A123",34,"A142","A152",1,"A173",2,"A192","A201","Good"
"A11",36,"A32","A410",15857,"A61","A71",2,"A91","A102",3,"A123",43,"A143","A152",1,"A174",1,"A191","A201","Good"
"A11",13,"A34","A49",1797,"A61","A72",3,"A93","A101",1,"A122",28,"A141","A152",2,"A172",1,"A191","A201","Good"
"A12",6,"A32","A40",14555,"A65","A71",1,"A93","A101",2,"A122",23,"A143","A152",1,"A171",1,"A192","A201","Bad"
"A11",24,"A32","A43",1603,"A61","A75",4,"A92","A101",4,"A123",55,"A143","A152",1,"A173",1,"A191","A201","Good"
"A12",48,"A32","A42",9960,"A61","A72",1,"A92","A101",2,"A123",26,"A143","A152",1,"A173",1,"A192","A201","Bad"
"A14",4,"A34","A43",1544,"A61","A74",2,"A93","A101",1,"A121",42,"A143","A152",3,"A172",2,"A191","A201","Good"
"A14",4,"A34","A43",1503,"A61","A74",2,"A93","A101",1,"A121",42,"A143","A152",2,"A172",2,"A191","A201","Good"
"A12",36,"A32","A41",6948,"A61","A73",2,"A93","A101",2,"A123",35,"A143","A151",1,"A174",1,"A192","A201","Good"
"A14",9,"A34","A40",2134,"A61","A73",4,"A93","A101",4,"A123",48,"A143","A152",3,"A173",1,"A192","A201","Good"
"A11",15,"A32","A43",1053,"A61","A72",4,"A94","A101",2,"A121",27,"A143","A152",1,"A173",1,"A191","A202","Good"
"A12",13,"A32","A43",2101,"A61","A72",2,"A92","A103",4,"A122",23,"A143","A152",1,"A172",1,"A191","A201","Good"
"A12",36,"A32","A46",12612,"A62","A73",1,"A93","A101",4,"A124",47,"A143","A153",1,"A173",2,"A192","A201","Bad"
"A12",60,"A32","A40",14027,"A61","A74",4,"A93","A101",2,"A124",27,"A143","A152",1,"A174",1,"A192","A201","Bad"
"A12",39,"A34","A43",4933,"A61","A74",2,"A93","A103",2,"A121",25,"A143","A152",2,"A173",1,"A191","A201","Bad"
"A14",12,"A32","A42",763,"A61","A73",4,"A92","A101",1,"A121",26,"A143","A152",1,"A173",1,"A192","A201","Good"
"A11",15,"A32","A40",3959,"A61","A73",3,"A92","A101",2,"A122",29,"A143","A152",1,"A173",1,"A192","A201","Bad"
"A13",15,"A32","A43",2327,"A61","A72",2,"A92","A101",3,"A121",25,"A143","A152",1,"A172",1,"A191","A201","Bad"
"A11",12,"A32","A41",3386,"A61","A75",3,"A93","A101",4,"A124",35,"A143","A153",1,"A173",1,"A192","A201","Bad"
"A12",21,"A32","A49",2767,"A62","A75",4,"A91","A101",2,"A123",61,"A141","A151",2,"A172",1,"A191","A201","Bad"
"A12",15,"A34","A49",2326,"A63","A73",2,"A93","A101",4,"A123",27,"A141","A152",1,"A173",1,"A191","A201","Good"
"A13",12,"A32","A42",2251,"A61","A73",1,"A92","A101",2,"A123",46,"A143","A152",1,"A172",1,"A191","A201","Good"
"A14",18,"A32","A43",2051,"A61","A72",4,"A93","A101",1,"A121",33,"A143","A152",1,"A173",1,"A191","A201","Good"
"A12",18,"A33","A40",2899,"A65","A75",4,"A93","A101",4,"A123",43,"A143","A152",1,"A173",2,"A191","A201","Good"
"A12",36,"A30","A43",3804,"A61","A73",4,"A92","A101",1,"A123",42,"A143","A152",1,"A173",1,"A192","A201","Bad"
"A14",30,"A31","A41",7485,"A65","A71",4,"A92","A101",1,"A121",53,"A141","A152",1,"A174",1,"A192","A201","Bad"
"A11",12,"A31","A40",697,"A61","A72",4,"A93","A101",2,"A123",46,"A141","A152",2,"A173",1,"A192","A201","Bad"
"A11",30,"A32","A43",2522,"A61","A75",1,"A93","A103",3,"A122",39,"A143","A152",1,"A173",2,"A191","A201","Good"
"A14",12,"A34","A42",1935,"A61","A75",4,"A93","A101",4,"A121",43,"A143","A152",3,"A173",1,"A192","A201","Good"
"A14",24,"A34","A43",2223,"A62","A75",4,"A93","A101",4,"A122",52,"A141","A152",2,"A173",1,"A191","A201","Good"
"A14",30,"A34","A43",2831,"A61","A73",4,"A92","A101",2,"A123",33,"A143","A152",1,"A173",1,"A192","A201","Good"
"A13",24,"A32","A40",947,"A61","A74",4,"A93","A101",3,"A124",38,"A141","A153",1,"A173",2,"A191","A201","Bad"
"A12",24,"A34","A41",7758,"A64","A75",2,"A92","A101",4,"A124",29,"A143","A151",1,"A173",1,"A191","A201","Good"
"A14",6,"A32","A42",1766,"A61","A73",1,"A94","A101",2,"A122",21,"A143","A151",1,"A173",1,"A191","A201","Good"
"A12",36,"A30","A49",1953,"A61","A75",4,"A93","A101",4,"A124",61,"A143","A153",1,"A174",1,"A192","A201","Bad"
"A11",18,"A34","A42",2124,"A61","A73",4,"A92","A101",4,"A121",24,"A143","A151",2,"A173",1,"A191","A201","Bad"
"A12",12,"A32","A40",836,"A62","A72",4,"A92","A101",2,"A122",23,"A141","A152",1,"A172",1,"A191","A201","Bad"
"A11",12,"A34","A43",385,"A61","A74",4,"A92","A101",3,"A121",58,"A143","A152",4,"A172",1,"A192","A201","Good"
"A12",12,"A34","A40",1995,"A62","A72",4,"A93","A101",1,"A123",27,"A143","A152",1,"A173",1,"A191","A201","Good"
"A14",42,"A34","A42",4042,"A63","A73",4,"A93","A101",4,"A121",36,"A143","A152",2,"A173",1,"A192","A201","Good"
"A14",24,"A32","A40",1393,"A61","A73",2,"A93","A103",2,"A121",31,"A143","A152",1,"A173",1,"A192","A201","Good"
"A12",39,"A33","A46",11760,"A62","A74",2,"A93","A101",3,"A124",32,"A143","A151",1,"A173",1,"A192","A201","Good"
"A14",21,"A32","A49",1572,"A64","A75",4,"A92","A101",4,"A121",36,"A141","A152",1,"A172",1,"A191","A201","Good"
"A12",12,"A32","A43",1103,"A61","A74",4,"A93","A103",3,"A121",29,"A143","A152",2,"A173",1,"A191","A202","Good"
"A11",30,"A32","A41",3857,"A61","A73",4,"A91","A101",4,"A122",40,"A143","A152",1,"A174",1,"A192","A201","Good"
"A11",30,"A34","A41",10623,"A61","A75",3,"A93","A101",4,"A124",38,"A143","A153",3,"A174",2,"A192","A201","Good"
"A12",21,"A32","A49",1188,"A61","A75",2,"A92","A101",4,"A122",39,"A143","A152",1,"A173",2,"A191","A201","Bad"
"A11",30,"A32","A42",2406,"A61","A74",4,"A92","A101",4,"A121",23,"A143","A151",1,"A173",1,"A191","A201","Bad"
"A11",9,"A32","A40",654,"A61","A73",4,"A93","A101",3,"A123",28,"A143","A152",1,"A172",1,"A191","A201","Bad"
"A12",48,"A30","A410",18424,"A61","A73",1,"A92","A101",2,"A122",32,"A141","A152",1,"A174",1,"A192","A202","Bad"
"A11",48,"A32","A41",10297,"A61","A74",4,"A93","A101",4,"A124",39,"A142","A153",3,"A173",2,"A192","A201","Bad"
"A12",60,"A32","A46",6288,"A61","A73",4,"A93","A101",4,"A124",42,"A143","A153",1,"A173",1,"A191","A201","Bad"
"A11",11,"A34","A40",3905,"A61","A73",2,"A93","A101",2,"A121",36,"A143","A151",2,"A173",2,"A191","A201","Good"
"A14",36,"A32","A46",1819,"A61","A73",4,"A93","A101",4,"A124",37,"A142","A153",1,"A173",1,"A192","A201","Bad"
"A11",12,"A32","A42",708,"A61","A73",2,"A93","A103",3,"A122",38,"A143","A152",1,"A172",2,"A191","A201","Good"
"A14",36,"A34","A43",9566,"A61","A73",2,"A92","A101",2,"A123",31,"A142","A152",2,"A173",1,"A191","A201","Good"
"A12",11,"A34","A40",1322,"A64","A73",4,"A92","A101",4,"A123",40,"A143","A152",2,"A173",1,"A191","A201","Good"
"A11",6,"A32","A42",428,"A61","A75",2,"A92","A101",1,"A122",49,"A141","A152",1,"A173",1,"A192","A201","Good"
"A11",6,"A34","A40",860,"A61","A75",1,"A92","A101",4,"A124",39,"A143","A152",2,"A173",1,"A192","A201","Good"
"A14",24,"A32","A49",1258,"A61","A74",4,"A93","A101",1,"A121",25,"A143","A152",1,"A173",1,"A192","A201","Good"
"A13",10,"A34","A43",1347,"A65","A74",4,"A93","A101",2,"A122",27,"A143","A152",2,"A173",1,"A192","A201","Good"
"A14",15,"A34","A42",3343,"A61","A73",4,"A93","A101",2,"A124",28,"A143","A153",1,"A173",1,"A192","A201","Good"
"A14",30,"A33","A49",4272,"A62","A73",2,"A93","A101",2,"A122",26,"A143","A152",2,"A172",1,"A191","A201","Good"
"A14",24,"A33","A41",4679,"A61","A74",3,"A93","A101",3,"A123",35,"A143","A152",2,"A172",1,"A192","A201","Good"
"A12",12,"A32","A42",2762,"A65","A75",1,"A92","A101",2,"A122",25,"A141","A152",1,"A173",1,"A192","A201","Bad"
"A12",18,"A32","A43",3213,"A63","A72",1,"A94","A101",3,"A121",25,"A143","A151",1,"A173",1,"A191","A201","Good"
"A13",24,"A32","A42",2892,"A61","A75",3,"A91","A101",4,"A124",51,"A143","A153",1,"A173",1,"A191","A201","Good"
"A14",21,"A33","A41",2993,"A61","A73",3,"A93","A101",2,"A121",28,"A142","A152",2,"A172",1,"A191","A201","Good"
"A14",18,"A32","A43",1453,"A61","A72",3,"A92","A101",1,"A121",26,"A143","A152",1,"A173",1,"A191","A201","Good"
"A14",24,"A32","A41",2679,"A61","A72",4,"A92","A101",1,"A124",29,"A143","A152",1,"A174",1,"A192","A201","Good"
"A14",24,"A32","A41",3488,"A62","A74",3,"A92","A101",4,"A123",23,"A143","A152",1,"A173",1,"A191","A201","Good"
"A13",42,"A34","A41",4796,"A61","A75",4,"A93","A101",4,"A124",56,"A143","A153",1,"A173",1,"A191","A201","Good"
"A12",30,"A32","A42",3441,"A62","A73",2,"A92","A102",4,"A123",21,"A143","A151",1,"A173",1,"A191","A201","Bad"
"A11",24,"A32","A43",1282,"A62","A73",4,"A92","A101",2,"A123",32,"A143","A152",1,"A172",1,"A191","A201","Bad"
"A14",33,"A34","A41",7253,"A61","A74",3,"A93","A101",2,"A123",35,"A143","A152",2,"A174",1,"A192","A201","Good"
"A14",18,"A34","A42",1817,"A61","A73",4,"A92","A101",2,"A124",28,"A143","A152",2,"A173",1,"A191","A201","Good"
"A12",36,"A34","A41",5800,"A61","A73",3,"A93","A101",4,"A123",34,"A143","A152",2,"A173",1,"A192","A201","Good"
"A14",15,"A32","A44",874,"A65","A72",4,"A92","A101",1,"A121",24,"A143","A152",1,"A173",1,"A191","A201","Good"
"A14",12,"A34","A42",3331,"A61","A75",2,"A93","A101",4,"A122",42,"A142","A152",1,"A173",1,"A191","A201","Good"
"A14",15,"A34","A41",3368,"A64","A75",3,"A93","A101",4,"A124",23,"A143","A151",2,"A173",1,"A192","A201","Good"
"A12",36,"A32","A46",3711,"A65","A73",2,"A94","A101",2,"A123",27,"A143","A152",1,"A173",1,"A191","A201","Good"
"A14",24,"A32","A42",3972,"A61","A74",2,"A92","A101",4,"A122",25,"A143","A151",1,"A173",1,"A192","A201","Good"
"A11",24,"A31","A410",1358,"A65","A75",4,"A93","A101",3,"A123",40,"A142","A152",1,"A174",1,"A192","A201","Bad"
"A11",6,"A31","A46",1198,"A61","A75",4,"A92","A101",4,"A124",35,"A143","A153",1,"A173",1,"A191","A201","Bad"
"A14",24,"A32","A43",5943,"A65","A72",1,"A92","A101",1,"A123",44,"A143","A152",2,"A173",1,"A192","A201","Bad"
"A13",15,"A32","A49",2687,"A61","A74",2,"A93","A101",4,"A122",26,"A143","A151",1,"A173",1,"A192","A201","Good"
"A12",48,"A31","A40",12169,"A65","A71",4,"A93","A102",4,"A124",36,"A143","A153",1,"A174",1,"A192","A201","Good"
"A11",24,"A34","A41",2957,"A61","A75",4,"A93","A101",4,"A122",63,"A143","A152",2,"A173",1,"A192","A201","Good"
"A12",15,"A32","A40",2631,"A62","A73",2,"A92","A101",4,"A123",28,"A143","A151",2,"A173",1,"A192","A201","Bad"
"A13",30,"A33","A49",1908,"A61","A75",4,"A93","A101",4,"A121",66,"A143","A152",1,"A174",1,"A192","A201","Bad"
"A11",48,"A32","A41",4788,"A61","A74",4,"A93","A101",3,"A122",26,"A143","A152",1,"A173",2,"A191","A201","Good"
"A14",12,"A34","A46",701,"A61","A73",4,"A93","A101",2,"A123",32,"A143","A152",2,"A173",1,"A191","A201","Good"
"A12",24,"A32","A42",3069,"A62","A75",4,"A93","A101",4,"A124",30,"A143","A153",1,"A173",1,"A191","A201","Good"
"A12",18,"A32","A40",5866,"A62","A73",2,"A93","A101",2,"A123",30,"A143","A152",2,"A173",1,"A192","A201","Good"
"A14",60,"A33","A43",15653,"A61","A74",2,"A93","A101",4,"A123",21,"A143","A152",2,"A173",1,"A192","A201","Good"
"A14",12,"A34","A46",2748,"A61","A75",2,"A92","A101",4,"A124",57,"A141","A153",3,"A172",1,"A191","A201","Good"
"A11",6,"A34","A40",609,"A61","A74",4,"A92","A101",3,"A122",37,"A143","A152",2,"A173",1,"A191","A202","Good"
"A13",12,"A32","A43",1297,"A61","A73",3,"A94","A101",4,"A121",23,"A143","A151",1,"A173",1,"A191","A201","Good"
"A11",24,"A32","A42",1747,"A61","A72",4,"A93","A102",1,"A122",24,"A143","A152",1,"A172",1,"A191","A202","Good"
"A11",12,"A30","A43",6199,"A61","A73",4,"A93","A101",2,"A122",28,"A143","A151",2,"A173",1,"A192","A201","Bad"
"A12",48,"A32","A43",3979,"A65","A74",4,"A93","A101",1,"A123",41,"A143","A152",2,"A173",2,"A192","A201","Good"
"A14",6,"A32","A42",2978,"A63","A73",1,"A93","A101",2,"A123",32,"A143","A152",1,"A173",1,"A192","A201","Good"
"A14",24,"A32","A43",1376,"A63","A74",4,"A92","A101",1,"A123",28,"A143","A152",1,"A173",1,"A191","A201","Good"
"A12",8,"A32","A43",760,"A61","A74",4,"A92","A103",2,"A121",44,"A143","A152",1,"A172",1,"A191","A201","Good"
"A11",12,"A32","A40",1274,"A61","A72",3,"A92","A101",1,"A121",37,"A143","A152",1,"A172",1,"A191","A201","Bad"
"A13",24,"A32","A42",3749,"A61","A72",2,"A92","A101",4,"A123",26,"A143","A152",1,"A173",1,"A191","A201","Good"
"A14",24,"A32","A43",3430,"A63","A75",3,"A93","A101",2,"A123",31,"A143","A152",1,"A173",2,"A192","A201","Good"
"A14",21,"A34","A41",3275,"A61","A75",1,"A93","A101",4,"A123",36,"A143","A152",1,"A174",1,"A192","A201","Good"
"A14",15,"A34","A43",1316,"A63","A73",2,"A94","A101",2,"A122",47,"A143","A152",2,"A172",1,"A191","A201","Good"
"A12",45,"A34","A41",4576,"A62","A71",3,"A93","A101",4,"A123",27,"A143","A152",1,"A173",1,"A191","A201","Good"
"A11",36,"A34","A46",8065,"A61","A73",3,"A92","A101",2,"A124",25,"A143","A152",2,"A174",1,"A192","A201","Bad"
"A12",36,"A32","A42",9034,"A62","A72",4,"A93","A102",1,"A124",29,"A143","A151",1,"A174",1,"A192","A201","Bad"
"A11",24,"A32","A40",915,"A65","A75",4,"A92","A101",2,"A123",29,"A141","A152",1,"A173",1,"A191","A201","Bad"
"A11",24,"A34","A49",1382,"A62","A74",4,"A93","A101",1,"A121",26,"A143","A152",2,"A173",1,"A192","A201","Good"
"A11",6,"A32","A42",1374,"A61","A73",1,"A93","A101",2,"A121",36,"A141","A152",1,"A172",1,"A192","A201","Good"
"A14",6,"A34","A40",362,"A62","A73",4,"A92","A101",4,"A123",52,"A143","A152",2,"A172",1,"A191","A201","Good"
"A11",18,"A32","A40",976,"A61","A72",1,"A92","A101",2,"A123",23,"A143","A152",1,"A172",1,"A191","A201","Bad"
"A14",36,"A34","A43",3342,"A65","A75",4,"A93","A101",2,"A123",51,"A143","A152",1,"A173",1,"A192","A201","Good"
"A12",9,"A32","A46",1199,"A61","A74",4,"A92","A101",4,"A122",67,"A143","A152",2,"A174",1,"A192","A201","Good"
"A14",18,"A34","A43",1800,"A61","A73",4,"A93","A101",2,"A123",24,"A143","A152",2,"A173",1,"A191","A201","Good"
"A11",21,"A32","A42",3599,"A61","A74",1,"A92","A101",4,"A123",26,"A143","A151",1,"A172",1,"A191","A201","Good"
"A12",7,"A32","A43",2415,"A61","A73",3,"A93","A103",2,"A121",34,"A143","A152",1,"A173",1,"A191","A201","Good"
"A11",24,"A32","A41",6579,"A61","A71",4,"A93","A101",2,"A124",29,"A143","A153",1,"A174",1,"A192","A201","Good"
"A14",21,"A32","A42",2241,"A61","A75",4,"A93","A101",2,"A121",50,"A143","A152",2,"A173",1,"A191","A201","Good"
"A12",9,"A32","A40",1549,"A65","A72",4,"A93","A101",2,"A121",35,"A143","A152",1,"A171",1,"A191","A201","Good"
"A12",24,"A32","A41",4113,"A63","A72",3,"A92","A101",4,"A123",28,"A143","A151",1,"A173",1,"A191","A201","Bad"
"A12",27,"A32","A49",2528,"A61","A72",4,"A92","A101",1,"A122",32,"A143","A152",1,"A173",2,"A192","A201","Good"
"A12",15,"A33","A45",1512,"A64","A73",3,"A94","A101",3,"A122",61,"A142","A152",2,"A173",1,"A191","A201","Bad"
"A11",18,"A32","A42",2462,"A61","A73",2,"A93","A101",2,"A123",22,"A143","A152",1,"A173",1,"A191","A201","Bad"
"A12",20,"A33","A410",2629,"A61","A73",2,"A93","A101",3,"A123",29,"A141","A152",2,"A173",1,"A192","A201","Good"
"A14",6,"A34","A42",1221,"A65","A73",1,"A94","A101",2,"A122",27,"A143","A152",2,"A173",1,"A191","A201","Good"
"A12",6,"A32","A43",368,"A65","A75",4,"A93","A101",4,"A122",38,"A143","A152",1,"A173",1,"A191","A201","Good"
"A11",9,"A32","A40",1422,"A61","A72",3,"A93","A101",2,"A124",27,"A143","A153",1,"A174",1,"A192","A201","Bad"
"A14",18,"A32","A43",1126,"A65","A72",4,"A92","A101",2,"A121",21,"A143","A151",1,"A173",1,"A192","A201","Good"
"A14",36,"A34","A41",11054,"A65","A73",4,"A93","A101",2,"A123",30,"A143","A152",1,"A174",1,"A192","A201","Good"
"A14",36,"A32","A40",909,"A63","A75",4,"A93","A101",4,"A122",36,"A143","A152",1,"A173",1,"A191","A201","Good"
"A14",24,"A32","A40",1474,"A62","A72",4,"A94","A101",3,"A121",33,"A143","A152",1,"A173",1,"A192","A201","Good"
"A14",12,"A32","A40",1101,"A61","A73",3,"A94","A101",2,"A121",27,"A143","A152",2,"A173",1,"A192","A201","Good"
"A12",30,"A30","A49",4221,"A61","A73",2,"A92","A101",1,"A123",28,"A143","A152",2,"A173",1,"A191","A201","Good"
"A14",18,"A32","A43",1473,"A61","A72",3,"A94","A101",4,"A121",39,"A143","A152",1,"A173",1,"A192","A201","Good"
"A12",24,"A33","A49",4712,"A65","A73",4,"A93","A101",2,"A122",37,"A141","A152",2,"A174",1,"A192","A201","Good"
"A14",36,"A34","A41",5711,"A64","A75",4,"A93","A101",2,"A123",38,"A143","A152",2,"A174",1,"A192","A201","Good"
"A14",10,"A32","A40",1309,"A65","A73",4,"A93","A103",4,"A122",27,"A143","A152",1,"A172",1,"A191","A201","Bad"
"A12",18,"A34","A42",1295,"A61","A72",4,"A92","A101",1,"A122",27,"A143","A152",2,"A173",1,"A191","A201","Good"
"A11",6,"A34","A43",338,"A63","A75",4,"A93","A101",4,"A123",52,"A143","A152",2,"A173",1,"A191","A201","Good"
"A14",15,"A32","A43",1386,"A65","A73",4,"A94","A101",2,"A121",40,"A143","A151",1,"A173",1,"A192","A201","Good"
"A11",60,"A33","A49",6836,"A61","A75",3,"A93","A101",4,"A124",63,"A143","A152",2,"A173",1,"A192","A201","Bad"
"A12",12,"A32","A42",983,"A64","A72",1,"A92","A101",4,"A121",19,"A143","A151",1,"A172",1,"A191","A201","Good"
"A12",12,"A32","A40",6078,"A61","A74",2,"A93","A101",2,"A123",32,"A143","A152",1,"A173",1,"A191","A201","Good"
