Received: from SOUTH-STATION-ANNEX.MIT.EDU by po9.MIT.EDU (5.61/4.7) id AA15760; Wed, 25 Nov 98 04:59:23 EST
Received: from crow.prod.itd.earthlink.net by MIT.EDU with SMTP
	id AA27168; Wed, 25 Nov 98 04:59:15 EST
Received: from roman.millennianet.com (ipa176.san-diego4.ca.pub-ip.psi.net [38.29.54.176])
	by crow.prod.itd.earthlink.net (8.8.7/8.8.5) with SMTP id BAA08804;
	Wed, 25 Nov 1998 01:26:06 -0800 (PST)
Message-Id: <199811250926.BAA08804@crow.prod.itd.earthlink.net>
Comments: Authenticated sender is 
From: oam@sprintmail.com
To: products98@hotmail.com, products98@hotmail.com, products98@hotmail.com,
        products98@hotmail.com, products98@hotmail.com, products98@hotmail.com
Date: Tue, 24 Nov 1998 07:53:16 +0000
X-Distribution: Bulk
Mime-Version: 1.0
Content-Type: text/plain; charset=US-ASCII
Content-Transfer-Encoding: 7BIT
Subject: Take Control NOW!
Reply-To: products98@hotmail.com
Priority: normal
X-Mailer: Pegasus Mail for Win32 (v2.53/R1)

                 With the Holidays approaching quickly...
                       CONTROL YOUR WEIGHT!!
                     Don't let your weight control you!

Find Out How You Can Lose Weight Naturally & Effectively.
Enjoy A New Level Of ENERGY.  Convert Your FAT Into ENERGY.
New Herbal Formula That Has Virtually Eliminated The Need To Diet! To
Find Out More Information On This Incredible New Product E-Mail:
products98@hotmail.com  And type "Request More Info" in the Subject
Line.


   `\|||/                   Wishing you the Best!        
    (@@)             Don't let the Holidays Gobble You Up!        
ooO_(_)_Ooo___________HAPPY HOLIDAYS!_______________ 
_____|_____|_____|_____|_____|_____|_____|_____|______
___|____|_____|_____|_____|_____|_____|_____|______|___
_____|_____Please pardon the intrusion_|____|____|______ If this
announcement is of no interest to you we are deeply sorry and
apologize for any inconvenience. If you wish to be removed from our
database please E-Mail:   getmeoff98@hotmail.com And type "Remove" in
the Subject line and Message body and press send!! It's that  easy!! 
=====================================================
